%YAML 1.1
%TAG !u! tag:unity3d.com,2011:
--- !u!1 &3260770556962960987
GameObject:
  m_ObjectHideFlags: 0
  m_CorrespondingSourceObject: {fileID: 0}
  m_PrefabInstance: {fileID: 0}
  m_PrefabAsset: {fileID: 0}
  serializedVersion: 6
  m_Component:
  - component: {fileID: 8601564207190246790}
  m_Layer: 0
  m_Name: L1_plumbers_wall
  m_TagString: Untagged
  m_Icon: {fileID: 0}
  m_NavMeshLayer: 0
  m_StaticEditorFlags: 0
  m_IsActive: 1
--- !u!4 &8601564207190246790
Transform:
  m_ObjectHideFlags: 0
  m_CorrespondingSourceObject: {fileID: 0}
  m_PrefabInstance: {fileID: 0}
  m_PrefabAsset: {fileID: 0}
  m_GameObject: {fileID: 3260770556962960987}
  m_LocalRotation: {x: 0, y: -0.7071068, z: 0, w: 0.7071068}
  m_LocalPosition: {x: 0.7117462, y: 0.31914997, z: 8.965962}
  m_LocalScale: {x: 1, y: 1, z: 1}
  m_ConstrainProportionsScale: 0
  m_Children:
  - {fileID: 1694290583806364269}
  m_Father: {fileID: 0}
  m_RootOrder: 0
  m_LocalEulerAnglesHint: {x: 0, y: -90, z: 0}
--- !u!1001 &1155715579821960582
PrefabInstance:
  m_ObjectHideFlags: 0
  serializedVersion: 2
  m_Modification:
    m_TransformParent: {fileID: 8601564207190246790}
    m_Modifications:
    - target: {fileID: -8679921383154817045, guid: 5ed0a6f325b0c8e4fbaeaaaedf8bbc6d, type: 3}
      propertyPath: m_RootOrder
      value: 0
      objectReference: {fileID: 0}
    - target: {fileID: -8679921383154817045, guid: 5ed0a6f325b0c8e4fbaeaaaedf8bbc6d, type: 3}
      propertyPath: m_LocalPosition.x
      value: 0
      objectReference: {fileID: 0}
    - target: {fileID: -8679921383154817045, guid: 5ed0a6f325b0c8e4fbaeaaaedf8bbc6d, type: 3}
      propertyPath: m_LocalPosition.y
      value: 0
      objectReference: {fileID: 0}
    - target: {fileID: -8679921383154817045, guid: 5ed0a6f325b0c8e4fbaeaaaedf8bbc6d, type: 3}
      propertyPath: m_LocalPosition.z
      value: 0
      objectReference: {fileID: 0}
    - target: {fileID: -8679921383154817045, guid: 5ed0a6f325b0c8e4fbaeaaaedf8bbc6d, type: 3}
      propertyPath: m_LocalRotation.w
      value: 1
      objectReference: {fileID: 0}
    - target: {fileID: -8679921383154817045, guid: 5ed0a6f325b0c8e4fbaeaaaedf8bbc6d, type: 3}
      propertyPath: m_LocalRotation.x
      value: 0
      objectReference: {fileID: 0}
    - target: {fileID: -8679921383154817045, guid: 5ed0a6f325b0c8e4fbaeaaaedf8bbc6d, type: 3}
      propertyPath: m_LocalRotation.y
      value: -0
      objectReference: {fileID: 0}
    - target: {fileID: -8679921383154817045, guid: 5ed0a6f325b0c8e4fbaeaaaedf8bbc6d, type: 3}
      propertyPath: m_LocalRotation.z
      value: -0
      objectReference: {fileID: 0}
    - target: {fileID: -8679921383154817045, guid: 5ed0a6f325b0c8e4fbaeaaaedf8bbc6d, type: 3}
      propertyPath: m_LocalEulerAnglesHint.x
      value: 0
      objectReference: {fileID: 0}
    - target: {fileID: -8679921383154817045, guid: 5ed0a6f325b0c8e4fbaeaaaedf8bbc6d, type: 3}
      propertyPath: m_LocalEulerAnglesHint.y
      value: 0
      objectReference: {fileID: 0}
    - target: {fileID: -8679921383154817045, guid: 5ed0a6f325b0c8e4fbaeaaaedf8bbc6d, type: 3}
      propertyPath: m_LocalEulerAnglesHint.z
      value: 0
      objectReference: {fileID: 0}
    - target: {fileID: 919132149155446097, guid: 5ed0a6f325b0c8e4fbaeaaaedf8bbc6d, type: 3}
      propertyPath: m_Name
      value: L1_plumbers_wall
      objectReference: {fileID: 0}
    m_RemovedComponents: []
  m_SourcePrefab: {fileID: 100100000, guid: 5ed0a6f325b0c8e4fbaeaaaedf8bbc6d, type: 3}
--- !u!4 &1694290583806364269 stripped
Transform:
  m_CorrespondingSourceObject: {fileID: -8679921383154817045, guid: 5ed0a6f325b0c8e4fbaeaaaedf8bbc6d, type: 3}
  m_PrefabInstance: {fileID: 1155715579821960582}
  m_PrefabAsset: {fileID: 0}
