%YAML 1.1
%TAG !u! tag:unity3d.com,2011:
--- !u!1001 &6053764306240991581
PrefabInstance:
  m_ObjectHideFlags: 0
  serializedVersion: 2
  m_Modification:
    m_TransformParent: {fileID: 0}
    m_Modifications:
    - target: {fileID: 3895339489137002493, guid: b3405e78299e777449af3bb251337bc0, type: 3}
      propertyPath: m_Name
      value: Lumber_sawmill_3
      objectReference: {fileID: 0}
    - target: {fileID: 4414888882212986183, guid: b3405e78299e777449af3bb251337bc0, type: 3}
      propertyPath: m_RootOrder
      value: 0
      objectReference: {fileID: 0}
    - target: {fileID: 4414888882212986183, guid: b3405e78299e777449af3bb251337bc0, type: 3}
      propertyPath: m_LocalPosition.x
      value: 429.31787
      objectReference: {fileID: 0}
    - target: {fileID: 4414888882212986183, guid: b3405e78299e777449af3bb251337bc0, type: 3}
      propertyPath: m_LocalPosition.y
      value: 0.07739973
      objectReference: {fileID: 0}
    - target: {fileID: 4414888882212986183, guid: b3405e78299e777449af3bb251337bc0, type: 3}
      propertyPath: m_LocalPosition.z
      value: 355.04166
      objectReference: {fileID: 0}
    - target: {fileID: 4414888882212986183, guid: b3405e78299e777449af3bb251337bc0, type: 3}
      propertyPath: m_LocalRotation.w
      value: 0.98764324
      objectReference: {fileID: 0}
    - target: {fileID: 4414888882212986183, guid: b3405e78299e777449af3bb251337bc0, type: 3}
      propertyPath: m_LocalRotation.x
      value: 0
      objectReference: {fileID: 0}
    - target: {fileID: 4414888882212986183, guid: b3405e78299e777449af3bb251337bc0, type: 3}
      propertyPath: m_LocalRotation.y
      value: -0.15671895
      objectReference: {fileID: 0}
    - target: {fileID: 4414888882212986183, guid: b3405e78299e777449af3bb251337bc0, type: 3}
      propertyPath: m_LocalRotation.z
      value: 0
      objectReference: {fileID: 0}
    - target: {fileID: 4414888882212986183, guid: b3405e78299e777449af3bb251337bc0, type: 3}
      propertyPath: m_LocalEulerAnglesHint.x
      value: 0
      objectReference: {fileID: 0}
    - target: {fileID: 4414888882212986183, guid: b3405e78299e777449af3bb251337bc0, type: 3}
      propertyPath: m_LocalEulerAnglesHint.y
      value: -18.033
      objectReference: {fileID: 0}
    - target: {fileID: 4414888882212986183, guid: b3405e78299e777449af3bb251337bc0, type: 3}
      propertyPath: m_LocalEulerAnglesHint.z
      value: 0
      objectReference: {fileID: 0}
    - target: {fileID: 7701590235409308236, guid: b3405e78299e777449af3bb251337bc0, type: 3}
      propertyPath: _id
      value: Lumber_sawmill_3
      objectReference: {fileID: 0}
    - target: {fileID: 7701590235409308236, guid: b3405e78299e777449af3bb251337bc0, type: 3}
      propertyPath: Name
      value: Lumber_sawmill_3
      objectReference: {fileID: 0}
    m_RemovedComponents: []
  m_SourcePrefab: {fileID: 100100000, guid: b3405e78299e777449af3bb251337bc0, type: 3}
