%YAML 1.1
%TAG !u! tag:unity3d.com,2011:
--- !u!1001 &1163508361274340263
PrefabInstance:
  m_ObjectHideFlags: 0
  serializedVersion: 2
  m_Modification:
    m_TransformParent: {fileID: 0}
    m_Modifications:
    - target: {fileID: 1161460575198161158, guid: 6e11ffabce209ec42a6500d72132bd47, type: 3}
      propertyPath: m_Name
      value: Miner_2
      objectReference: {fileID: 0}
    - target: {fileID: 1969628372996649916, guid: 6e11ffabce209ec42a6500d72132bd47, type: 3}
      propertyPath: m_RootOrder
      value: 0
      objectReference: {fileID: 0}
    - target: {fileID: 1969628372996649916, guid: 6e11ffabce209ec42a6500d72132bd47, type: 3}
      propertyPath: m_LocalPosition.x
      value: 341.1445
      objectReference: {fileID: 0}
    - target: {fileID: 1969628372996649916, guid: 6e11ffabce209ec42a6500d72132bd47, type: 3}
      propertyPath: m_LocalPosition.y
      value: 53.83445
      objectReference: {fileID: 0}
    - target: {fileID: 1969628372996649916, guid: 6e11ffabce209ec42a6500d72132bd47, type: 3}
      propertyPath: m_LocalPosition.z
      value: 357.9395
      objectReference: {fileID: 0}
    - target: {fileID: 1969628372996649916, guid: 6e11ffabce209ec42a6500d72132bd47, type: 3}
      propertyPath: m_LocalRotation.w
      value: 1
      objectReference: {fileID: 0}
    - target: {fileID: 1969628372996649916, guid: 6e11ffabce209ec42a6500d72132bd47, type: 3}
      propertyPath: m_LocalRotation.x
      value: 0
      objectReference: {fileID: 0}
    - target: {fileID: 1969628372996649916, guid: 6e11ffabce209ec42a6500d72132bd47, type: 3}
      propertyPath: m_LocalRotation.y
      value: 0
      objectReference: {fileID: 0}
    - target: {fileID: 1969628372996649916, guid: 6e11ffabce209ec42a6500d72132bd47, type: 3}
      propertyPath: m_LocalRotation.z
      value: 0
      objectReference: {fileID: 0}
    - target: {fileID: 1969628372996649916, guid: 6e11ffabce209ec42a6500d72132bd47, type: 3}
      propertyPath: m_LocalEulerAnglesHint.x
      value: 0
      objectReference: {fileID: 0}
    - target: {fileID: 1969628372996649916, guid: 6e11ffabce209ec42a6500d72132bd47, type: 3}
      propertyPath: m_LocalEulerAnglesHint.y
      value: 0
      objectReference: {fileID: 0}
    - target: {fileID: 1969628372996649916, guid: 6e11ffabce209ec42a6500d72132bd47, type: 3}
      propertyPath: m_LocalEulerAnglesHint.z
      value: 0
      objectReference: {fileID: 0}
    - target: {fileID: 8974738750742525338, guid: 6e11ffabce209ec42a6500d72132bd47, type: 3}
      propertyPath: _id
      value: Miner_2
      objectReference: {fileID: 0}
    - target: {fileID: 8974738750742525338, guid: 6e11ffabce209ec42a6500d72132bd47, type: 3}
      propertyPath: Name
      value: Miner_2
      objectReference: {fileID: 0}
    m_RemovedComponents: []
  m_SourcePrefab: {fileID: 100100000, guid: 6e11ffabce209ec42a6500d72132bd47, type: 3}
