%YAML 1.1
%TAG !u! tag:unity3d.com,2011:
--- !u!1001 &6601648529382547755
PrefabInstance:
  m_ObjectHideFlags: 0
  serializedVersion: 2
  m_Modification:
    m_TransformParent: {fileID: 0}
    m_Modifications:
    - target: {fileID: 403411874174814944, guid: 2d1fd5a4530b8f04ebecb9e747cc072e, type: 3}
      propertyPath: m_Name
      value: Trees_seeder_4
      objectReference: {fileID: 0}
    - target: {fileID: 1068167140209397850, guid: 2d1fd5a4530b8f04ebecb9e747cc072e, type: 3}
      propertyPath: m_RootOrder
      value: 0
      objectReference: {fileID: 0}
    - target: {fileID: 1068167140209397850, guid: 2d1fd5a4530b8f04ebecb9e747cc072e, type: 3}
      propertyPath: m_LocalPosition.x
      value: 432.89594
      objectReference: {fileID: 0}
    - target: {fileID: 1068167140209397850, guid: 2d1fd5a4530b8f04ebecb9e747cc072e, type: 3}
      propertyPath: m_LocalPosition.y
      value: 1.5979676
      objectReference: {fileID: 0}
    - target: {fileID: 1068167140209397850, guid: 2d1fd5a4530b8f04ebecb9e747cc072e, type: 3}
      propertyPath: m_LocalPosition.z
      value: 361.94797
      objectReference: {fileID: 0}
    - target: {fileID: 1068167140209397850, guid: 2d1fd5a4530b8f04ebecb9e747cc072e, type: 3}
      propertyPath: m_LocalRotation.w
      value: 1
      objectReference: {fileID: 0}
    - target: {fileID: 1068167140209397850, guid: 2d1fd5a4530b8f04ebecb9e747cc072e, type: 3}
      propertyPath: m_LocalRotation.x
      value: 0
      objectReference: {fileID: 0}
    - target: {fileID: 1068167140209397850, guid: 2d1fd5a4530b8f04ebecb9e747cc072e, type: 3}
      propertyPath: m_LocalRotation.y
      value: 0
      objectReference: {fileID: 0}
    - target: {fileID: 1068167140209397850, guid: 2d1fd5a4530b8f04ebecb9e747cc072e, type: 3}
      propertyPath: m_LocalRotation.z
      value: 0
      objectReference: {fileID: 0}
    - target: {fileID: 1068167140209397850, guid: 2d1fd5a4530b8f04ebecb9e747cc072e, type: 3}
      propertyPath: m_LocalEulerAnglesHint.x
      value: 0
      objectReference: {fileID: 0}
    - target: {fileID: 1068167140209397850, guid: 2d1fd5a4530b8f04ebecb9e747cc072e, type: 3}
      propertyPath: m_LocalEulerAnglesHint.y
      value: 0
      objectReference: {fileID: 0}
    - target: {fileID: 1068167140209397850, guid: 2d1fd5a4530b8f04ebecb9e747cc072e, type: 3}
      propertyPath: m_LocalEulerAnglesHint.z
      value: 0
      objectReference: {fileID: 0}
    - target: {fileID: 8750729762636882980, guid: 2d1fd5a4530b8f04ebecb9e747cc072e, type: 3}
      propertyPath: _id
      value: Trees_seeder_4
      objectReference: {fileID: 0}
    - target: {fileID: 8750729762636882980, guid: 2d1fd5a4530b8f04ebecb9e747cc072e, type: 3}
      propertyPath: Name
      value: Trees_seeder_4
      objectReference: {fileID: 0}
    m_RemovedComponents: []
  m_SourcePrefab: {fileID: 100100000, guid: 2d1fd5a4530b8f04ebecb9e747cc072e, type: 3}
