ProviderID,LevelUpgrade,ResourcesCapacity,UpgradeTime,,
PlumbersService_workzone,,,,,
,1,210,10,,
,2,315,10,,
,3,420,10,,
,4,525,10,,
,5,630,10,,
,6,735,10,,
,7,840,10,,
,8,945,10,,
,9,1050,10,,
,10,1155,10,,
,11,1260,10,,
,12,1365,10,,
,13,1470,10,,
,14,1575,10,,
,15,1680,10,,
,16,1785,10,,
,17,1890,10,,
,18,1995,10,,
,19,2100,10,,
,20,2205,10,,
,21,2310,20,,
,22,2415,20,,
,23,2520,20,,
,24,2625,20,,
,25,2730,20,,
,26,2835,20,,
,27,2940,20,,
,28,3045,20,,
,29,3150,20,,
,30,3255,20,,
,31,3360,20,,
,32,3465,20,,
,33,3570,20,,
,34,3675,20,,
,35,3780,20,,
,36,3885,20,,
,37,3990,20,,
,38,4095,20,,
,39,4200,20,,
,40,4305,20,,
,41,4410,30,,
,42,4515,30,,
,43,4620,30,,
,44,4725,30,,
,45,4830,30,,
,46,4935,30,,
,47,5040,30,,
,48,5145,30,,
,49,5250,30,,
,50,5355,30,,
,51,5460,30,,
,52,5565,30,,
,53,5670,30,,
,54,5775,30,,
,55,5880,30,,
,56,5985,30,,
,57,6090,30,,
,58,6195,30,,
,59,6300,30,,
,60,6405,30,,
,61,6510,40,,
,62,6615,40,,
,63,6720,40,,
,64,6825,40,,
,65,6930,40,,
,66,7035,40,,
,67,7140,40,,
,68,7245,40,,
,69,7350,40,,
,70,7455,40,,
,71,7560,40,,
,72,7665,40,,
,73,7770,40,,
,74,7875,40,,
,75,7980,40,,
,76,8085,40,,
,77,8190,40,,
,78,8295,40,,
,79,8400,40,,
,80,8505,40,,
,81,8610,50,,
,82,8715,50,,
,83,8820,50,,
,84,8925,50,,
,85,9030,50,,
,86,9135,50,,
,87,9240,50,,
,88,9345,50,,
,89,9450,50,,
,90,9555,50,,
,91,9660,50,,
,92,9765,50,,
,93,9870,50,,
,94,9975,50,,
,95,10080,50,,
,96,10185,50,,
,97,10290,50,,
,98,10395,50,,
,99,10500,50,,
,100,10605,50,,
,101,10710,60,,
,102,10815,60,,
,103,10920,60,,
,104,11025,60,,
,105,11130,60,,
,106,11235,60,,
,107,11340,60,,
,108,11445,60,,
,109,11550,60,,
,110,11655,60,,
,111,11760,60,,
,112,11865,60,,
,113,11970,60,,
,114,12075,60,,
,115,12180,60,,
,116,12285,60,,
,117,12390,60,,
,118,12495,60,,
,119,12600,60,,
,120,12705,60,,
,121,12810,70,,
,122,12915,70,,
,123,13020,70,,
,124,13125,70,,
,125,13230,70,,
,126,13335,70,,
,127,13440,70,,
,128,13545,70,,
,129,13650,70,,
,130,13755,70,,
,131,13860,70,,
,132,13965,70,,
,133,14070,70,,
,134,14175,70,,
,135,14280,70,,
,136,14385,70,,
,137,14490,70,,
,138,14595,70,,
,139,14700,70,,
,140,14805,70,,
,141,14910,80,,
,142,15015,80,,
,143,15120,80,,
,144,15225,80,,
,145,15330,80,,
,146,15435,80,,
,147,15540,80,,
,148,15645,80,,
,149,15750,80,,
,150,15855,80,,
,151,15960,80,,
,152,16065,80,,
,153,16170,80,,
,154,16275,80,,
,155,16380,80,,
,156,16485,80,,
,157,16590,80,,
,158,16695,80,,
,159,16800,80,,
,160,16905,80,,
,161,17010,90,,
,162,17115,90,,
,163,17220,90,,
,164,17325,90,,
,165,17430,90,,
,166,17535,90,,
,167,17640,90,,
,168,17745,90,,
,169,17850,90,,
,170,17955,90,,
,171,18060,90,,
,172,18165,90,,
,173,18270,90,,
,174,18375,90,,
,175,18480,90,,
,176,18585,90,,
,177,18690,90,,
,178,18795,90,,
,179,18900,90,,
,180,19005,90,,
,181,19110,100,,
,182,19215,100,,
,183,19320,100,,
,184,19425,100,,
,185,19530,100,,
,186,19635,100,,
,187,19740,100,,
,188,19845,100,,
,189,19950,100,,
,190,20055,100,,
,191,20160,100,,
,192,20265,100,,
,193,20370,100,,
,194,20475,100,,
,195,20580,100,,
,196,20685,100,,
,197,20790,100,,
,198,20895,100,,
,199,21000,100,,
,200,21105,100,,
CleanersService_workzone,,,,,
,1,2400,10,,
,2,2800,10,,
,3,3200,10,,
,4,3600,10,,
,5,4000,10,,
,6,4400,10,,
,7,4800,10,,
,8,5200,10,,
,9,5600,10,,
,10,6000,10,,
,11,6400,10,,
,12,6800,10,,
,13,7200,10,,
,14,7600,10,,
,15,8000,10,,
,16,8400,10,,
,17,8800,10,,
,18,9200,10,,
,19,9600,10,,
,20,10000,10,,
,21,10400,20,,
,22,10800,20,,
,23,11200,20,,
,24,11600,20,,
,25,12000,20,,
,26,12400,20,,
,27,12800,20,,
,28,13200,20,,
,29,13600,20,,
,30,14000,20,,
,31,14400,20,,
,32,14800,20,,
,33,15200,20,,
,34,15600,20,,
,35,16000,20,,
,36,16400,20,,
,37,16800,20,,
,38,17200,20,,
,39,17600,20,,
,40,18000,20,,
,41,18400,30,,
,42,18800,30,,
,43,19200,30,,
,44,19600,30,,
,45,20000,30,,
,46,20400,30,,
,47,20800,30,,
,48,21200,30,,
,49,21600,30,,
,50,22000,30,,
,51,22400,30,,
,52,22800,30,,
,53,23200,30,,
,54,23600,30,,
,55,24000,30,,
,56,24400,30,,
,57,24800,30,,
,58,25200,30,,
,59,25600,30,,
,60,26000,30,,
,61,26400,40,,
,62,26800,40,,
,63,27200,40,,
,64,27600,40,,
,65,28000,40,,
,66,28400,40,,
,67,28800,40,,
,68,29200,40,,
,69,29600,40,,
,70,30000,40,,
,71,30400,40,,
,72,30800,40,,
,73,31200,40,,
,74,31600,40,,
,75,32000,40,,
,76,32400,40,,
,77,32800,40,,
,78,33200,40,,
,79,33600,40,,
,80,34000,40,,
,81,34400,50,,
,82,34800,50,,
,83,35200,50,,
,84,35600,50,,
,85,36000,50,,
,86,36400,50,,
,87,36800,50,,
,88,37200,50,,
,89,37600,50,,
,90,38000,50,,
,91,38400,50,,
,92,38800,50,,
,93,39200,50,,
,94,39600,50,,
,95,40000,50,,
,96,40400,50,,
,97,40800,50,,
,98,41200,50,,
,99,41600,50,,
,100,42000,50,,
,101,42400,60,,
,102,42800,60,,
,103,43200,60,,
,104,43600,60,,
,105,44000,60,,
,106,44400,60,,
,107,44800,60,,
,108,45200,60,,
,109,45600,60,,
,110,46000,60,,
,111,46400,60,,
,112,46800,60,,
,113,47200,60,,
,114,47600,60,,
,115,48000,60,,
,116,48400,60,,
,117,48800,60,,
,118,49200,60,,
,119,49600,60,,
,120,50000,60,,
,121,50400,70,,
,122,50800,70,,
,123,51200,70,,
,124,51600,70,,
,125,52000,70,,
,126,52400,70,,
,127,52800,70,,
,128,53200,70,,
,129,53600,70,,
,130,54000,70,,
,131,54400,70,,
,132,54800,70,,
,133,55200,70,,
,134,55600,70,,
,135,56000,70,,
,136,56400,70,,
,137,56800,70,,
,138,57200,70,,
,139,57600,70,,
,140,58000,70,,
,141,58400,80,,
,142,58800,80,,
,143,59200,80,,
,144,59600,80,,
,145,60000,80,,
,146,60400,80,,
,147,60800,80,,
,148,61200,80,,
,149,61600,80,,
,150,62000,80,,
,151,62400,80,,
,152,62800,80,,
,153,63200,80,,
,154,63600,80,,
,155,64000,80,,
,156,64400,80,,
,157,64800,80,,
,158,65200,80,,
,159,65600,80,,
,160,66000,80,,
,161,66400,90,,
,162,66800,90,,
,163,67200,90,,
,164,67600,90,,
,165,68000,90,,
,166,68400,90,,
,167,68800,90,,
,168,69200,90,,
,169,69600,90,,
,170,70000,90,,
,171,70400,90,,
,172,70800,90,,
,173,71200,90,,
,174,71600,90,,
,175,72000,90,,
,176,72400,90,,
,177,72800,90,,
,178,73200,90,,
,179,73600,90,,
,180,74000,90,,
,181,74400,100,,
,182,74800,100,,
,183,75200,100,,
,184,75600,100,,
,185,76000,100,,
,186,76400,100,,
,187,76800,100,,
,188,77200,100,,
,189,77600,100,,
,190,78000,100,,
,191,78400,100,,
,192,78800,100,,
,193,79200,100,,
,194,79600,100,,
,195,80000,100,,
,196,80400,100,,
,197,80800,100,,
,198,81200,100,,
,199,81600,100,,
,200,82000,100,,
,201,82400,110,,
,202,82800,110,,
,203,83200,110,,
,204,83600,110,,
,205,84000,110,,
,206,84400,110,,
,207,84800,110,,
,208,85200,110,,
,209,85600,110,,
,210,86000,110,,
,211,86400,110,,
,212,86800,110,,
,213,87200,110,,
,214,87600,110,,
,215,88000,110,,
,216,88400,110,,
,217,88800,110,,
,218,89200,110,,
,219,89600,110,,
,220,90000,110,,
,221,90400,120,,
,222,90800,120,,
,223,91200,120,,
,224,91600,120,,
,225,92000,120,,
,226,92400,120,,
,227,92800,120,,
,228,93200,120,,
,229,93600,120,,
,230,94000,120,,
,231,94400,120,,
,232,94800,120,,
,233,95200,120,,
,234,95600,120,,
,235,96000,120,,
,236,96400,120,,
,237,96800,120,,
,238,97200,120,,
,239,97600,120,,
,240,98000,120,,
,241,98400,130,,
,242,98800,130,,
,243,99200,130,,
,244,99600,130,,
,245,100000,130,,
,246,100400,130,,
,247,100800,130,,
,248,101200,130,,
,249,101600,130,,
,250,102000,130,,
,251,102400,130,,
,252,102800,130,,
,253,103200,130,,
,254,103600,130,,
,255,104000,130,,
,256,104400,130,,
,257,104800,130,,
,258,105200,130,,
,259,105600,130,,
,260,106000,130,,
,261,106400,140,,
,262,106800,140,,
,263,107200,140,,
,264,107600,140,,
,265,108000,140,,
,266,108400,140,,
,267,108800,140,,
,268,109200,140,,
,269,109600,140,,
,270,110000,140,,
,271,110400,140,,
,272,110800,140,,
,273,111200,140,,
,274,111600,140,,
,275,112000,140,,
,276,112400,140,,
,277,112800,140,,
,278,113200,140,,
,279,113600,140,,
,280,114000,140,,
,281,114400,150,,
,282,114800,150,,
,283,115200,150,,
,284,115600,150,,
,285,116000,150,,
,286,116400,150,,
,287,116800,150,,
,288,117200,150,,
,289,117600,150,,
,290,118000,150,,
,291,118400,150,,
,292,118800,150,,
,293,119200,150,,
,294,119600,150,,
,295,120000,150,,
,296,120400,150,,
,297,120800,150,,
,298,121200,150,,
,299,121600,150,,
,300,122000,150,,
,301,122400,160,,
,302,122800,160,,
,303,123200,160,,
,304,123600,160,,
,305,124000,160,,
,306,124400,160,,
,307,124800,160,,
,308,125200,160,,
,309,125600,160,,
,310,126000,160,,
,311,126400,160,,
,312,126800,160,,
,313,127200,160,,
,314,127600,160,,
,315,128000,160,,
,316,128400,160,,
,317,128800,160,,
,318,129200,160,,
,319,129600,160,,
,320,130000,160,,
,321,130400,180,,
,322,130800,180,,
,323,131200,180,,
,324,131600,180,,
,325,132000,180,,
,326,132400,180,,
,327,132800,180,,
,328,133200,180,,
,329,133600,180,,
,330,134000,180,,
,331,134400,180,,
,332,134800,180,,
,333,135200,180,,
,334,135600,180,,
,335,136000,180,,
,336,136400,180,,
,337,136800,180,,
,338,137200,180,,
,339,137600,180,,
,340,138000,180,,
,341,138400,200,,
,342,138800,200,,
,343,139200,200,,
,344,139600,200,,
,345,140000,200,,
,346,140400,200,,
,347,140800,200,,
,348,141200,200,,
,349,141600,200,,
,350,142000,200,,
,351,142400,200,,
,352,142800,200,,
,353,143200,200,,
,354,143600,200,,
,355,144000,200,,
,356,144400,200,,
,357,144800,200,,
,358,145200,200,,
,359,145600,200,,
,360,146000,200,,
,361,146400,240,,
,362,146800,240,,
,363,147200,240,,
,364,147600,240,,
,365,148000,240,,
,366,148400,240,,
,367,148800,240,,
,368,149200,240,,
,369,149600,240,,
,370,150000,240,,
,371,150400,240,,
,372,150800,240,,
,373,151200,240,,
,374,151600,240,,
,375,152000,240,,
,376,152400,240,,
,377,152800,240,,
,378,153200,240,,
,379,153600,240,,
,380,154000,240,,
,381,154400,240,,
,382,154800,240,,
,383,155200,240,,
,384,155600,240,,
,385,156000,240,,
,386,156400,240,,
,387,156800,240,,
,388,157200,240,,
,389,157600,240,,
,390,158000,240,,
,391,158400,240,,
,392,158800,240,,
,393,159200,240,,
,394,159600,240,,
,395,160000,240,,
,396,160400,240,,
,397,160800,240,,
,398,161200,240,,
,399,161600,240,,
,400,162000,240,,
,401,162400,240,,
,402,162800,240,,
,403,163200,240,,
,404,163600,240,,
,405,164000,240,,
,406,164400,240,,
,407,164800,240,,
,408,165200,240,,
,409,165600,240,,
,410,166000,240,,
,411,166400,240,,
,412,166800,240,,
,413,167200,240,,
,414,167600,240,,
,415,168000,240,,
,416,168400,240,,
,417,168800,240,,
,418,169200,240,,
,419,169600,240,,
,420,170000,240,,
,421,170400,240,,
,422,170800,240,,
,423,171200,240,,
,424,171600,240,,
,425,172000,240,,
,426,172400,240,,
,427,172800,240,,
,428,173200,240,,
,429,173600,240,,
,430,174000,240,,
,431,174400,240,,
,432,174800,240,,
,433,175200,240,,
,434,175600,240,,
,435,176000,240,,
,436,176400,240,,
,437,176800,240,,
,438,177200,240,,
,439,177600,240,,
,440,178000,240,,
,441,178400,240,,
,442,178800,240,,
,443,179200,240,,
,444,179600,240,,
,445,180000,240,,
,446,180400,240,,
,447,180800,240,,
,448,181200,240,,
,449,181600,240,,
,450,182000,240,,
,451,182400,240,,
,452,182800,240,,
,453,183200,240,,
,454,183600,240,,
,455,184000,240,,
,456,184400,240,,
,457,184800,240,,
,458,185200,240,,
,459,185600,240,,
,460,186000,240,,
,461,186400,240,,
,462,186800,240,,
,463,187200,240,,
,464,187600,240,,
,465,188000,240,,
,466,188400,240,,
,467,188800,240,,
,468,189200,240,,
,469,189600,240,,
,470,190000,240,,
,471,190400,240,,
,472,190800,240,,
,473,191200,240,,
,474,191600,240,,
,475,192000,240,,
,476,192400,240,,
,477,192800,240,,
,478,193200,240,,
,479,193600,240,,
,480,194000,240,,
,481,194400,240,,
,482,194800,240,,
,483,195200,240,,
,484,195600,240,,
,485,196000,240,,
,486,196400,240,,
,487,196800,240,,
,488,197200,240,,
,489,197600,240,,
,490,198000,240,,
,491,198400,240,,
,492,198800,240,,
,493,199200,240,,
,494,199600,240,,
,495,200000,240,,
,496,200400,240,,
,497,200800,240,,
,498,201200,240,,
,499,201600,240,,
,500,202000,240,,
Room1_workzone,,,,,
,1,65,10,"42,25",42
,2,98,10,"63,7",64
,3,130,10,"84,5",85
,4,163,10,"105,95",106
,5,195,10,"126,75",127
,6,228,10,"148,2",148
,7,260,10,169,169
,8,293,10,"190,45",190
,9,325,10,"211,25",211
,10,358,10,"232,7",233
,11,390,10,"253,5",254
,12,423,10,"274,95",275
,13,455,10,"295,75",296
,14,488,10,"317,2",317
,15,520,10,338,338
,16,553,10,"359,45",359
,17,585,10,"380,25",380
,18,618,10,"401,7",402
,19,650,10,"422,5",423
,20,683,10,"443,95",444
,21,715,20,"464,75",465
,22,748,20,"486,2",486
,23,780,20,507,507
,24,813,20,"528,45",528
,25,845,20,"549,25",549
,26,878,20,"570,7",571
,27,910,20,"591,5",592
,28,943,20,"612,95",613
,29,975,20,"633,75",634
,30,1008,20,"655,2",655
,31,1040,20,676,676
,32,1073,20,"697,45",697
,33,1105,20,"718,25",718
,34,1138,20,"739,7",740
,35,1170,20,"760,5",761
,36,1203,20,"781,95",782
,37,1235,20,"802,75",803
,38,1268,20,"824,2",824
,39,1300,20,845,845
,40,1333,20,"866,45",866
,41,1365,30,"887,25",887
,42,1398,30,"908,7",909
,43,1430,30,"929,5",930
,44,1463,30,"950,95",951
,45,1495,30,"971,75",972
,46,1528,30,"993,2",993
,47,1560,30,1014,1014
,48,1593,30,"1035,45",1035
,49,1625,30,"1056,25",1056
,50,1658,30,"1077,7",1078
,51,1690,30,"1098,5",1099
,52,1723,30,"1119,95",1120
,53,1755,30,"1140,75",1141
,54,1788,30,"1162,2",1162
,55,1820,30,1183,1183
,56,1853,30,"1204,45",1204
,57,1885,30,"1225,25",1225
,58,1918,30,"1246,7",1247
,59,1950,30,"1267,5",1268
,60,1983,30,"1288,95",1289
,61,2015,40,"1309,75",1310
,62,2048,40,"1331,2",1331
,63,2080,40,1352,1352
,64,2113,40,"1373,45",1373
,65,2145,40,"1394,25",1394
,66,2178,40,"1415,7",1416
,67,2210,40,"1436,5",1437
,68,2243,40,"1457,95",1458
,69,2275,40,"1478,75",1479
,70,2308,40,"1500,2",1500
,71,2340,40,1521,1521
,72,2373,40,"1542,45",1542
,73,2405,40,"1563,25",1563
,74,2438,40,"1584,7",1585
,75,2470,40,"1605,5",1606
,76,2503,40,"1626,95",1627
,77,2535,40,"1647,75",1648
,78,2568,40,"1669,2",1669
,79,2600,40,1690,1690
,80,2633,40,"1711,45",1711
,81,2665,50,"1732,25",1732
,82,2698,50,"1753,7",1754
,83,2730,50,"1774,5",1775
,84,2763,50,"1795,95",1796
,85,2795,50,"1816,75",1817
,86,2828,50,"1838,2",1838
,87,2860,50,1859,1859
,88,2893,50,"1880,45",1880
,89,2925,50,"1901,25",1901
,90,2958,50,"1922,7",1923
,91,2990,50,"1943,5",1944
,92,3023,50,"1964,95",1965
,93,3055,50,"1985,75",1986
,94,3088,50,"2007,2",2007
,95,3120,50,2028,2028
,96,3153,50,"2049,45",2049
,97,3185,50,"2070,25",2070
,98,3218,50,"2091,7",2092
,99,3250,50,"2112,5",2113
,100,3283,50,"2133,95",2134
,101,3315,60,"2154,75",2155
,102,3348,60,"2176,2",2176
,103,3380,60,2197,2197
,104,3413,60,"2218,45",2218
,105,3445,60,"2239,25",2239
,106,3478,60,"2260,7",2261
,107,3510,60,"2281,5",2282
,108,3543,60,"2302,95",2303
,109,3575,60,"2323,75",2324
,110,3608,60,"2345,2",2345
,111,3640,60,2366,2366
,112,3673,60,"2387,45",2387
,113,3705,60,"2408,25",2408
,114,3738,60,"2429,7",2430
,115,3770,60,"2450,5",2451
,116,3803,60,"2471,95",2472
,117,3835,60,"2492,75",2493
,118,3868,60,"2514,2",2514
,119,3900,60,2535,2535
,120,3933,60,"2556,45",2556
,121,3965,70,"2577,25",2577
,122,3998,70,"2598,7",2599
,123,4030,70,"2619,5",2620
,124,4063,70,"2640,95",2641
,125,4095,70,"2661,75",2662
,126,4128,70,"2683,2",2683
,127,4160,70,2704,2704
,128,4193,70,"2725,45",2725
,129,4225,70,"2746,25",2746
,130,4258,70,"2767,7",2768
,131,4290,70,"2788,5",2789
,132,4323,70,"2809,95",2810
,133,4355,70,"2830,75",2831
,134,4388,70,"2852,2",2852
,135,4420,70,2873,2873
,136,4453,70,"2894,45",2894
,137,4485,70,"2915,25",2915
,138,4518,70,"2936,7",2937
,139,4550,70,"2957,5",2958
,140,4583,70,"2978,95",2979
,141,4615,80,"2999,75",3000
,142,4648,80,"3021,2",3021
,143,4680,80,3042,3042
,144,4713,80,"3063,45",3063
,145,4745,80,"3084,25",3084
,146,4778,80,"3105,7",3106
,147,4810,80,"3126,5",3127
,148,4843,80,"3147,95",3148
,149,4875,80,"3168,75",3169
,150,4908,80,"3190,2",3190
,151,4940,80,3211,3211
,152,4973,80,"3232,45",3232
,153,5005,80,"3253,25",3253
,154,5038,80,"3274,7",3275
,155,5070,80,"3295,5",3296
,156,5103,80,"3316,95",3317
,157,5135,80,"3337,75",3338
,158,5168,80,"3359,2",3359
,159,5200,80,3380,3380
,160,5233,80,"3401,45",3401
,161,5265,90,"3422,25",3422
,162,5298,90,"3443,7",3444
,163,5330,90,"3464,5",3465
,164,5363,90,"3485,95",3486
,165,5395,90,"3506,75",3507
,166,5428,90,"3528,2",3528
,167,5460,90,3549,3549
,168,5493,90,"3570,45",3570
,169,5525,90,"3591,25",3591
,170,5558,90,"3612,7",3613
,171,5590,90,"3633,5",3634
,172,5623,90,"3654,95",3655
,173,5655,90,"3675,75",3676
,174,5688,90,"3697,2",3697
,175,5720,90,3718,3718
,176,5753,90,"3739,45",3739
,177,5785,90,"3760,25",3760
,178,5818,90,"3781,7",3782
,179,5850,90,"3802,5",3803
,180,5883,90,"3823,95",3824
,181,5915,100,"3844,75",3845
,182,5948,100,"3866,2",3866
,183,5980,100,3887,3887
,184,6013,100,"3908,45",3908
,185,6045,100,"3929,25",3929
,186,6078,100,"3950,7",3951
,187,6110,100,"3971,5",3972
,188,6143,100,"3992,95",3993
,189,6175,100,"4013,75",4014
,190,6208,100,"4035,2",4035
,191,6240,100,4056,4056
,192,6273,100,"4077,45",4077
,193,6305,100,"4098,25",4098
,194,6338,100,"4119,7",4120
,195,6370,100,"4140,5",4141
,196,6403,100,"4161,95",4162
,197,6435,100,"4182,75",4183
,198,6468,100,"4204,2",4204
,199,6500,100,4225,4225
,200,6533,100,"4246,45",4246
Room2_workzone,,,,,
,1,1E+15,1,,
,2,1E+15,1,,
,3,1E+15,1,,
,4,1E+15,1,,
,5,1E+15,1,,
,6,1E+15,1,,
,7,1E+15,1,,
,8,1E+15,1,,
,9,1E+15,1,,
,10,1E+15,1,,
,11,1E+15,1,,
,12,1E+15,1,,
,13,1E+15,1,,
,14,1E+15,1,,
,15,1E+15,1,,
,16,1E+15,1,,
,17,1E+15,1,,
,18,1E+15,1,,
,19,1E+15,1,,
,20,1E+15,1,,
,21,1E+15,1,,
,22,1E+15,1,,
,23,1E+15,1,,
,24,1E+15,1,,
,25,1E+15,1,,
,26,1E+15,1,,
,27,1E+15,1,,
,28,1E+15,1,,
,29,1E+15,1,,
,30,1E+15,1,,
,31,1E+15,1,,
,32,1E+15,1,,
,33,1E+15,1,,
,34,1E+15,1,,
,35,1E+15,1,,
,36,1E+15,1,,
,37,1E+15,1,,
,38,1E+15,1,,
,39,1E+15,1,,
,40,1E+15,1,,
,41,1E+15,1,,
,42,1E+15,1,,
,43,1E+15,1,,
,44,1E+15,1,,
,45,1E+15,1,,
,46,1E+15,1,,
,47,1E+15,1,,
,48,1E+15,1,,
,49,1E+15,1,,
,50,1E+15,1,,
,51,1E+15,1,,
,52,1E+15,1,,
,53,1E+15,1,,
,54,1E+15,1,,
,55,1E+15,1,,
,56,1E+15,1,,
,57,1E+15,1,,
,58,1E+15,1,,
,59,1E+15,1,,
,60,1E+15,1,,
,61,1E+15,1,,
,62,1E+15,1,,
,63,1E+15,1,,
,64,1E+15,1,,
,65,1E+15,1,,
,66,1E+15,1,,
,67,1E+15,1,,
,68,1E+15,1,,
,69,1E+15,1,,
,70,1E+15,1,,
,71,1E+15,1,,
,72,1E+15,1,,
,73,1E+15,1,,
,74,1E+15,1,,
,75,1E+15,1,,
,76,1E+15,1,,
,77,1E+15,1,,
,78,1E+15,1,,
,79,1E+15,1,,
,80,1E+15,1,,
,81,1E+15,1,,
,82,1E+15,1,,
,83,1E+15,1,,
,84,1E+15,1,,
,85,1E+15,1,,
,86,1E+15,1,,
,87,1E+15,1,,
,88,1E+15,1,,
,89,1E+15,1,,
,90,1E+15,1,,
,91,1E+15,1,,
,92,1E+15,1,,
,93,1E+15,1,,
,94,1E+15,1,,
,95,1E+15,1,,
,96,1E+15,1,,
,97,1E+15,1,,
,98,1E+15,1,,
,99,1E+15,1,,
,100,1E+15,1,,
,101,1E+15,1,,
,102,1E+15,1,,
,103,1E+15,1,,
,104,1E+15,1,,
,105,1E+15,1,,
,106,1E+15,1,,
,107,1E+15,1,,
,108,1E+15,1,,
,109,1E+15,1,,
,110,1E+15,1,,
,111,1E+15,1,,
,112,1E+15,1,,
,113,1E+15,1,,
,114,1E+15,1,,
,115,1E+15,1,,
,116,1E+15,1,,
,117,1E+15,1,,
,118,1E+15,1,,
,119,1E+15,1,,
,120,1E+15,1,,
,121,1E+15,1,,
,122,1E+15,1,,
,123,1E+15,1,,
,124,1E+15,1,,
,125,1E+15,1,,
,126,1E+15,1,,
,127,1E+15,1,,
,128,1E+15,1,,
,129,1E+15,1,,
,130,1E+15,1,,
,131,1E+15,1,,
,132,1E+15,1,,
,133,1E+15,1,,
,134,1E+15,1,,
,135,1E+15,1,,
,136,1E+15,1,,
,137,1E+15,1,,
,138,1E+15,1,,
,139,1E+15,1,,
,140,1E+15,1,,
,141,1E+15,1,,
,142,1E+15,1,,
,143,1E+15,1,,
,144,1E+15,1,,
,145,1E+15,1,,
,146,1E+15,1,,
,147,1E+15,1,,
,148,1E+15,1,,
,149,1E+15,1,,
,150,1E+15,1,,
,151,1E+15,1,,
,152,1E+15,1,,
,153,1E+15,1,,
,154,1E+15,1,,
,155,1E+15,1,,
,156,1E+15,1,,
,157,1E+15,1,,
,158,1E+15,1,,
,159,1E+15,1,,
,160,1E+15,1,,
,161,1E+15,1,,
,162,1E+15,1,,
,163,1E+15,1,,
,164,1E+15,1,,
,165,1E+15,1,,
,166,1E+15,1,,
,167,1E+15,1,,
,168,1E+15,1,,
,169,1E+15,1,,
,170,1E+15,1,,
,171,1E+15,1,,
,172,1E+15,1,,
,173,1E+15,1,,
,174,1E+15,1,,
,175,1E+15,1,,
,176,1E+15,1,,
,177,1E+15,1,,
,178,1E+15,1,,
,179,1E+15,1,,
,180,1E+15,1,,
,181,1E+15,1,,
,182,1E+15,1,,
,183,1E+15,1,,
,184,1E+15,1,,
,185,1E+15,1,,
,186,1E+15,1,,
,187,1E+15,1,,
,188,1E+15,1,,
,189,1E+15,1,,
,190,1E+15,1,,
,191,1E+15,1,,
,192,1E+15,1,,
,193,1E+15,1,,
,194,1E+15,1,,
,195,1E+15,1,,
,196,1E+15,1,,
,197,1E+15,1,,
,198,1E+15,1,,
,199,1E+15,1,,
,200,1E+15,1,,
Room3_workzone,,,,,
,1,1000000,10,,
,2,1000000,10,,
,3,1000000,10,,
,4,1000000,10,,
,5,1000000,10,,
,6,1000000,10,,
,7,1000000,10,,
,8,1000000,10,,
,9,1000000,10,,
,10,1000000,10,,
,11,1000000,10,,
,12,1000000,10,,
,13,1000000,10,,
,14,1000000,10,,
,15,1000000,10,,
,16,1000000,10,,
,17,1000000,10,,
,18,1000000,10,,
,19,1000000,10,,
,20,1000000,10,,
,21,1000000,20,,
,22,1000000,20,,
,23,1000000,20,,
,24,1000000,20,,
,25,1000000,20,,
,26,1000000,20,,
,27,1000000,20,,
,28,1000000,20,,
,29,1000000,20,,
,30,1000000,20,,
,31,1000000,20,,
,32,1000000,20,,
,33,1000000,20,,
,34,1000000,20,,
,35,1000000,20,,
,36,1000000,20,,
,37,1000000,20,,
,38,1000000,20,,
,39,1000000,20,,
,40,1000000,20,,
,41,1000000,30,,
,42,1000000,30,,
,43,1000000,30,,
,44,1000000,30,,
,45,1000000,30,,
,46,1000000,30,,
,47,1000000,30,,
,48,1000000,30,,
,49,1000000,30,,
,50,1000000,30,,
,51,1000000,30,,
,52,1000000,30,,
,53,1000000,30,,
,54,1000000,30,,
,55,1000000,30,,
,56,1000000,30,,
,57,1000000,30,,
,58,1000000,30,,
,59,1000000,30,,
,60,1000000,30,,
,61,1000000,40,,
,62,1000000,40,,
,63,1000000,40,,
,64,1000000,40,,
,65,1000000,40,,
,66,1000000,40,,
,67,1000000,40,,
,68,1000000,40,,
,69,1000000,40,,
,70,1000000,40,,
,71,1000000,40,,
,72,1000000,40,,
,73,1000000,40,,
,74,1000000,40,,
,75,1000000,40,,
,76,1000000,40,,
,77,1000000,40,,
,78,1000000,40,,
,79,1000000,40,,
,80,1000000,40,,
,81,1000000,50,,
,82,1000000,50,,
,83,1000000,50,,
,84,1000000,50,,
,85,1000000,50,,
,86,1000000,50,,
,87,1000000,50,,
,88,1000000,50,,
,89,1000000,50,,
,90,1000000,50,,
,91,1000000,50,,
,92,1000000,50,,
,93,1000000,50,,
,94,1000000,50,,
,95,1000000,50,,
,96,1000000,50,,
,97,1000000,50,,
,98,1000000,50,,
,99,1000000,50,,
,100,1000000,50,,
,101,1000000,60,,
,102,1000000,60,,
,103,1000000,60,,
,104,1000000,60,,
,105,1000000,60,,
,106,1000000,60,,
,107,1000000,60,,
,108,1000000,60,,
,109,1000000,60,,
,110,1000000,60,,
,111,1000000,60,,
,112,1000000,60,,
,113,1000000,60,,
,114,1000000,60,,
,115,1000000,60,,
,116,1000000,60,,
,117,1000000,60,,
,118,1000000,60,,
,119,1000000,60,,
,120,1000000,60,,
,121,1000000,70,,
,122,1000000,70,,
,123,1000000,70,,
,124,1000000,70,,
,125,1000000,70,,
,126,1000000,70,,
,127,1000000,70,,
,128,1000000,70,,
,129,1000000,70,,
,130,1000000,70,,
,131,1000000,70,,
,132,1000000,70,,
,133,1000000,70,,
,134,1000000,70,,
,135,1000000,70,,
,136,1000000,70,,
,137,1000000,70,,
,138,1000000,70,,
,139,1000000,70,,
,140,1000000,70,,
,141,1000000,80,,
,142,1000000,80,,
,143,1000000,80,,
,144,1000000,80,,
,145,1000000,80,,
,146,1000000,80,,
,147,1000000,80,,
,148,1000000,80,,
,149,1000000,80,,
,150,1000000,80,,
,151,1000000,80,,
,152,1000000,80,,
,153,1000000,80,,
,154,1000000,80,,
,155,1000000,80,,
,156,1000000,80,,
,157,1000000,80,,
,158,1000000,80,,
,159,1000000,80,,
,160,1000000,80,,
,161,1000000,90,,
,162,1000000,90,,
,163,1000000,90,,
,164,1000000,90,,
,165,1000000,90,,
,166,1000000,90,,
,167,1000000,90,,
,168,1000000,90,,
,169,1000000,90,,
,170,1000000,90,,
,171,1000000,90,,
,172,1000000,90,,
,173,1000000,90,,
,174,1000000,90,,
,175,1000000,90,,
,176,1000000,90,,
,177,1000000,90,,
,178,1000000,90,,
,179,1000000,90,,
,180,1000000,90,,
,181,1000000,100,,
,182,1000000,100,,
,183,1000000,100,,
,184,1000000,100,,
,185,1000000,100,,
,186,1000000,100,,
,187,1000000,100,,
,188,1000000,100,,
,189,1000000,100,,
,190,1000000,100,,
,191,1000000,100,,
,192,1000000,100,,
,193,1000000,100,,
,194,1000000,100,,
,195,1000000,100,,
,196,1000000,100,,
,197,1000000,100,,
,198,1000000,100,,
,199,1000000,100,,
,200,1000000,100,,
Room4_workzone,,,,,
,1,150,30,,
,2,188,30,,
,3,225,30,,
,4,263,30,,
,5,300,30,,
,6,338,30,,
,7,375,30,,
,8,413,30,,
,9,450,30,,
,10,488,30,,
,11,525,30,,
,12,563,30,,
,13,600,30,,
,14,638,30,,
,15,675,30,,
,16,713,30,,
,17,750,30,,
,18,788,30,,
,19,825,30,,
,20,863,30,,
,21,900,30,,
,22,938,30,,
,23,975,30,,
,24,1013,30,,
,25,1050,30,,
,26,1088,30,,
,27,1125,30,,
,28,1163,30,,
,29,1200,30,,
,30,1238,30,,
,31,1275,30,,
,32,1313,30,,
,33,1350,30,,
,34,1388,30,,
,35,1425,30,,
,36,1463,30,,
,37,1500,30,,
,38,1538,30,,
,39,1575,30,,
,40,1613,30,,
,41,1650,30,,
,42,1688,30,,
,43,1725,30,,
,44,1763,30,,
,45,1800,30,,
,46,1838,30,,
,47,1875,30,,
,48,1913,30,,
,49,1950,30,,
,50,1988,30,,
,51,2025,30,,
,52,2063,30,,
,53,2100,30,,
,54,2138,30,,
,55,2175,30,,
,56,2213,30,,
,57,2250,30,,
,58,2288,30,,
,59,2325,30,,
,60,2363,30,,
,61,2400,30,,
,62,2438,30,,
,63,2475,30,,
,64,2513,30,,
,65,2550,30,,
,66,2588,30,,
,67,2625,30,,
,68,2663,30,,
,69,2700,30,,
,70,2738,30,,
,71,2775,30,,
,72,2813,30,,
,73,2850,30,,
,74,2888,30,,
,75,2925,30,,
,76,2963,30,,
,77,3000,30,,
,78,3038,30,,
,79,3075,30,,
,80,3113,30,,
,81,3150,30,,
,82,3188,30,,
,83,3225,30,,
,84,3263,30,,
,85,3300,30,,
,86,3338,30,,
,87,3375,30,,
,88,3413,30,,
,89,3450,30,,
,90,3488,30,,
,91,3525,30,,
,92,3563,30,,
,93,3600,30,,
,94,3638,30,,
,95,3675,30,,
,96,3713,30,,
,97,3750,30,,
,98,3788,30,,
,99,3825,30,,
,100,3863,30,,
,101,3900,30,,
,102,3938,30,,
,103,3975,30,,
,104,4013,30,,
,105,4050,30,,
,106,4088,30,,
,107,4125,30,,
,108,4163,30,,
,109,4200,30,,
,110,4238,30,,
,111,4275,30,,
,112,4313,30,,
,113,4350,30,,
,114,4388,30,,
,115,4425,30,,
,116,4463,30,,
,117,4500,30,,
,118,4538,30,,
,119,4575,30,,
,120,4613,30,,
,121,4650,30,,
,122,4688,30,,
,123,4725,30,,
,124,4763,30,,
,125,4800,30,,
,126,4838,30,,
,127,4875,30,,
,128,4913,30,,
,129,4950,30,,
,130,4988,30,,
,131,5025,30,,
,132,5063,30,,
,133,5100,30,,
,134,5138,30,,
,135,5175,30,,
,136,5213,30,,
,137,5250,30,,
,138,5288,30,,
,139,5325,30,,
,140,5363,30,,
,141,5400,30,,
,142,5438,30,,
,143,5475,30,,
,144,5513,30,,
,145,5550,30,,
,146,5588,30,,
,147,5625,30,,
,148,5663,30,,
,149,5700,30,,
,150,5738,30,,
,151,5775,30,,
,152,5813,30,,
,153,5850,30,,
,154,5888,30,,
,155,5925,30,,
,156,5963,30,,
,157,6000,30,,
,158,6038,30,,
,159,6075,30,,
,160,6113,30,,
,161,6150,30,,
,162,6188,30,,
,163,6225,30,,
,164,6263,30,,
,165,6300,30,,
,166,6338,30,,
,167,6375,30,,
,168,6413,30,,
,169,6450,30,,
,170,6488,30,,
,171,6525,30,,
,172,6563,30,,
,173,6600,30,,
,174,6638,30,,
,175,6675,30,,
,176,6713,30,,
,177,6750,30,,
,178,6788,30,,
,179,6825,30,,
,180,6863,30,,
,181,6900,30,,
,182,6938,30,,
,183,6975,30,,
,184,7013,30,,
,185,7050,30,,
,186,7088,30,,
,187,7125,30,,
,188,7163,30,,
,189,7200,30,,
,190,7238,30,,
,191,7275,30,,
,192,7313,30,,
,193,7350,30,,
,194,7388,30,,
,195,7425,30,,
,196,7463,30,,
,197,7500,30,,
,198,7538,30,,
,199,7575,30,,
,200,7613,30,,
PoolService_workzone,,,,,
,1,150,30,,
,2,188,30,,
,3,225,30,,
,4,263,30,,
,5,300,30,,
,6,338,30,,
,7,375,30,,
,8,413,30,,
,9,450,30,,
,10,488,30,,
,11,525,30,,
,12,563,30,,
,13,600,30,,
,14,638,30,,
,15,675,30,,
,16,713,30,,
,17,750,30,,
,18,788,30,,
,19,825,30,,
,20,863,30,,
,21,900,30,,
,22,938,30,,
,23,975,30,,
,24,1013,30,,
,25,1050,30,,
,26,1088,30,,
,27,1125,30,,
,28,1163,30,,
,29,1200,30,,
,30,1238,30,,
,31,1275,30,,
,32,1313,30,,
,33,1350,30,,
,34,1388,30,,
,35,1425,30,,
,36,1463,30,,
,37,1500,30,,
,38,1538,30,,
,39,1575,30,,
,40,1613,30,,
,41,1650,30,,
,42,1688,30,,
,43,1725,30,,
,44,1763,30,,
,45,1800,30,,
,46,1838,30,,
,47,1875,30,,
,48,1913,30,,
,49,1950,30,,
,50,1988,30,,
,51,2025,30,,
,52,2063,30,,
,53,2100,30,,
,54,2138,30,,
,55,2175,30,,
,56,2213,30,,
,57,2250,30,,
,58,2288,30,,
,59,2325,30,,
,60,2363,30,,
,61,2400,30,,
,62,2438,30,,
,63,2475,30,,
,64,2513,30,,
,65,2550,30,,
,66,2588,30,,
,67,2625,30,,
,68,2663,30,,
,69,2700,30,,
,70,2738,30,,
,71,2775,30,,
,72,2813,30,,
,73,2850,30,,
,74,2888,30,,
,75,2925,30,,
,76,2963,30,,
,77,3000,30,,
,78,3038,30,,
,79,3075,30,,
,80,3113,30,,
,81,3150,30,,
,82,3188,30,,
,83,3225,30,,
,84,3263,30,,
,85,3300,30,,
,86,3338,30,,
,87,3375,30,,
,88,3413,30,,
,89,3450,30,,
,90,3488,30,,
,91,3525,30,,
,92,3563,30,,
,93,3600,30,,
,94,3638,30,,
,95,3675,30,,
,96,3713,30,,
,97,3750,30,,
,98,3788,30,,
,99,3825,30,,
,100,3863,30,,
BarService_workzone,,,,,
,1,150,30,,
,2,188,30,,
,3,225,30,,
,4,263,30,,
,5,300,30,,
,6,338,30,,
,7,375,30,,
,8,413,30,,
,9,450,30,,
,10,488,30,,
,11,525,30,,
,12,563,30,,
,13,600,30,,
,14,638,30,,
,15,675,30,,
,16,713,30,,
,17,750,30,,
,18,788,30,,
,19,825,30,,
,20,863,30,,
,21,900,30,,
,22,938,30,,
,23,975,30,,
,24,1013,30,,
,25,1050,30,,
,26,1088,30,,
,27,1125,30,,
,28,1163,30,,
,29,1200,30,,
,30,1238,30,,
,31,1275,30,,
,32,1313,30,,
,33,1350,30,,
,34,1388,30,,
,35,1425,30,,
,36,1463,30,,
,37,1500,30,,
,38,1538,30,,
,39,1575,30,,
,40,1613,30,,
,41,1650,30,,
,42,1688,30,,
,43,1725,30,,
,44,1763,30,,
,45,1800,30,,
,46,1838,30,,
,47,1875,30,,
,48,1913,30,,
,49,1950,30,,
,50,1988,30,,
,51,2025,30,,
,52,2063,30,,
,53,2100,30,,
,54,2138,30,,
,55,2175,30,,
,56,2213,30,,
,57,2250,30,,
,58,2288,30,,
,59,2325,30,,
,60,2363,30,,
,61,2400,30,,
,62,2438,30,,
,63,2475,30,,
,64,2513,30,,
,65,2550,30,,
,66,2588,30,,
,67,2625,30,,
,68,2663,30,,
,69,2700,30,,
,70,2738,30,,
,71,2775,30,,
,72,2813,30,,
,73,2850,30,,
,74,2888,30,,
,75,2925,30,,
,76,2963,30,,
,77,3000,30,,
,78,3038,30,,
,79,3075,30,,
,80,3113,30,,
,81,3150,30,,
,82,3188,30,,
,83,3225,30,,
,84,3263,30,,
,85,3300,30,,
,86,3338,30,,
,87,3375,30,,
,88,3413,30,,
,89,3450,30,,
,90,3488,30,,
,91,3525,30,,
,92,3563,30,,
,93,3600,30,,
,94,3638,30,,
,95,3675,30,,
,96,3713,30,,
,97,3750,30,,
,98,3788,30,,
,99,3825,30,,
,100,3863,30,,
ReceptionService_workzone,,,,,
,1,150,30,,
,2,188,30,,
,3,225,30,,
,4,263,30,,
,5,300,30,,
,6,338,30,,
,7,375,30,,
,8,413,30,,
,9,450,30,,
,10,488,30,,
ParkingService_workzone,,,,,
,1,150,30,,
,2,188,30,,
,3,225,30,,
,4,263,30,,
,5,300,30,,
,6,338,30,,
,7,375,30,,
,8,413,30,,
,9,450,30,,
,10,488,30,,