%YAML 1.1
%TAG !u! tag:unity3d.com,2011:
--- !u!114 &11400000
MonoBehaviour:
  m_ObjectHideFlags: 0
  m_CorrespondingSourceObject: {fileID: 0}
  m_PrefabInstance: {fileID: 0}
  m_PrefabAsset: {fileID: 0}
  m_GameObject: {fileID: 0}
  m_Enabled: 1
  m_EditorHideFlags: 0
  m_Script: {fileID: 11500000, guid: 3993b13800ca15440be3a736b01de671, type: 3}
  m_Name: GlobalCritMultiplier_Miners
  m_EditorClassIdentifier: 
  m_developmentDescription: 
  m_value: 1
  m_type: 1
