%YAML 1.1
%TAG !u! tag:unity3d.com,2011:
--- !u!1 &1116749838861530230
GameObject:
  m_ObjectHideFlags: 0
  m_CorrespondingSourceObject: {fileID: 0}
  m_PrefabInstance: {fileID: 0}
  m_PrefabAsset: {fileID: 0}
  serializedVersion: 6
  m_Component:
  - component: {fileID: 888626937048810361}
  m_Layer: 0
  m_Name: Closed_State
  m_TagString: Untagged
  m_Icon: {fileID: 0}
  m_NavMeshLayer: 0
  m_StaticEditorFlags: 0
  m_IsActive: 1
--- !u!4 &888626937048810361
Transform:
  m_ObjectHideFlags: 0
  m_CorrespondingSourceObject: {fileID: 0}
  m_PrefabInstance: {fileID: 0}
  m_PrefabAsset: {fileID: 0}
  m_GameObject: {fileID: 1116749838861530230}
  m_LocalRotation: {x: 0, y: 0, z: 0, w: 1}
  m_LocalPosition: {x: 4.9058104, y: 0.46584725, z: 0.4124632}
  m_LocalScale: {x: 1, y: 1, z: 1}
  m_ConstrainProportionsScale: 0
  m_Children:
  - {fileID: 4655338364103509845}
  - {fileID: 7161372067495975405}
  m_Father: {fileID: 0}
  m_RootOrder: 0
  m_LocalEulerAnglesHint: {x: 0, y: 0, z: 0}
--- !u!1001 &2008665994411079644
PrefabInstance:
  m_ObjectHideFlags: 0
  serializedVersion: 2
  m_Modification:
    m_TransformParent: {fileID: 888626937048810361}
    m_Modifications:
    - target: {fileID: 1682156032523600621, guid: ab04e2d5ba37bed4590dcb5c0d8cc4d6, type: 3}
      propertyPath: m_Name
      value: Closed_State_floor_lvl_0
      objectReference: {fileID: 0}
    - target: {fileID: 8683638167146327601, guid: ab04e2d5ba37bed4590dcb5c0d8cc4d6, type: 3}
      propertyPath: m_RootOrder
      value: 1
      objectReference: {fileID: 0}
    - target: {fileID: 8683638167146327601, guid: ab04e2d5ba37bed4590dcb5c0d8cc4d6, type: 3}
      propertyPath: m_LocalPosition.x
      value: -2.811615
      objectReference: {fileID: 0}
    - target: {fileID: 8683638167146327601, guid: ab04e2d5ba37bed4590dcb5c0d8cc4d6, type: 3}
      propertyPath: m_LocalPosition.y
      value: -0.46857953
      objectReference: {fileID: 0}
    - target: {fileID: 8683638167146327601, guid: ab04e2d5ba37bed4590dcb5c0d8cc4d6, type: 3}
      propertyPath: m_LocalPosition.z
      value: -3.045786
      objectReference: {fileID: 0}
    - target: {fileID: 8683638167146327601, guid: ab04e2d5ba37bed4590dcb5c0d8cc4d6, type: 3}
      propertyPath: m_LocalRotation.w
      value: 1
      objectReference: {fileID: 0}
    - target: {fileID: 8683638167146327601, guid: ab04e2d5ba37bed4590dcb5c0d8cc4d6, type: 3}
      propertyPath: m_LocalRotation.x
      value: -0
      objectReference: {fileID: 0}
    - target: {fileID: 8683638167146327601, guid: ab04e2d5ba37bed4590dcb5c0d8cc4d6, type: 3}
      propertyPath: m_LocalRotation.y
      value: -0
      objectReference: {fileID: 0}
    - target: {fileID: 8683638167146327601, guid: ab04e2d5ba37bed4590dcb5c0d8cc4d6, type: 3}
      propertyPath: m_LocalRotation.z
      value: -0
      objectReference: {fileID: 0}
    - target: {fileID: 8683638167146327601, guid: ab04e2d5ba37bed4590dcb5c0d8cc4d6, type: 3}
      propertyPath: m_LocalEulerAnglesHint.x
      value: 0
      objectReference: {fileID: 0}
    - target: {fileID: 8683638167146327601, guid: ab04e2d5ba37bed4590dcb5c0d8cc4d6, type: 3}
      propertyPath: m_LocalEulerAnglesHint.y
      value: 0
      objectReference: {fileID: 0}
    - target: {fileID: 8683638167146327601, guid: ab04e2d5ba37bed4590dcb5c0d8cc4d6, type: 3}
      propertyPath: m_LocalEulerAnglesHint.z
      value: 0
      objectReference: {fileID: 0}
    m_RemovedComponents: []
  m_SourcePrefab: {fileID: 100100000, guid: ab04e2d5ba37bed4590dcb5c0d8cc4d6, type: 3}
--- !u!4 &7161372067495975405 stripped
Transform:
  m_CorrespondingSourceObject: {fileID: 8683638167146327601, guid: ab04e2d5ba37bed4590dcb5c0d8cc4d6, type: 3}
  m_PrefabInstance: {fileID: 2008665994411079644}
  m_PrefabAsset: {fileID: 0}
--- !u!1001 &6266409031811159416
PrefabInstance:
  m_ObjectHideFlags: 0
  serializedVersion: 2
  m_Modification:
    m_TransformParent: {fileID: 888626937048810361}
    m_Modifications:
    - target: {fileID: 1616181229747704365, guid: 18f4e7f0531c18e4eba8ebf70f3aa5c4, type: 3}
      propertyPath: m_RootOrder
      value: 0
      objectReference: {fileID: 0}
    - target: {fileID: 1616181229747704365, guid: 18f4e7f0531c18e4eba8ebf70f3aa5c4, type: 3}
      propertyPath: m_LocalPosition.x
      value: 0
      objectReference: {fileID: 0}
    - target: {fileID: 1616181229747704365, guid: 18f4e7f0531c18e4eba8ebf70f3aa5c4, type: 3}
      propertyPath: m_LocalPosition.y
      value: 0
      objectReference: {fileID: 0}
    - target: {fileID: 1616181229747704365, guid: 18f4e7f0531c18e4eba8ebf70f3aa5c4, type: 3}
      propertyPath: m_LocalPosition.z
      value: 0
      objectReference: {fileID: 0}
    - target: {fileID: 1616181229747704365, guid: 18f4e7f0531c18e4eba8ebf70f3aa5c4, type: 3}
      propertyPath: m_LocalRotation.w
      value: 1
      objectReference: {fileID: 0}
    - target: {fileID: 1616181229747704365, guid: 18f4e7f0531c18e4eba8ebf70f3aa5c4, type: 3}
      propertyPath: m_LocalRotation.x
      value: -0
      objectReference: {fileID: 0}
    - target: {fileID: 1616181229747704365, guid: 18f4e7f0531c18e4eba8ebf70f3aa5c4, type: 3}
      propertyPath: m_LocalRotation.y
      value: -0
      objectReference: {fileID: 0}
    - target: {fileID: 1616181229747704365, guid: 18f4e7f0531c18e4eba8ebf70f3aa5c4, type: 3}
      propertyPath: m_LocalRotation.z
      value: -0
      objectReference: {fileID: 0}
    - target: {fileID: 1616181229747704365, guid: 18f4e7f0531c18e4eba8ebf70f3aa5c4, type: 3}
      propertyPath: m_LocalEulerAnglesHint.x
      value: 0
      objectReference: {fileID: 0}
    - target: {fileID: 1616181229747704365, guid: 18f4e7f0531c18e4eba8ebf70f3aa5c4, type: 3}
      propertyPath: m_LocalEulerAnglesHint.y
      value: 0
      objectReference: {fileID: 0}
    - target: {fileID: 1616181229747704365, guid: 18f4e7f0531c18e4eba8ebf70f3aa5c4, type: 3}
      propertyPath: m_LocalEulerAnglesHint.z
      value: 0
      objectReference: {fileID: 0}
    - target: {fileID: 1616181229747704366, guid: 18f4e7f0531c18e4eba8ebf70f3aa5c4, type: 3}
      propertyPath: m_Name
      value: Closed_State_Walls_lvl_0
      objectReference: {fileID: 0}
    m_RemovedComponents: []
  m_SourcePrefab: {fileID: 100100000, guid: 18f4e7f0531c18e4eba8ebf70f3aa5c4, type: 3}
--- !u!4 &4655338364103509845 stripped
Transform:
  m_CorrespondingSourceObject: {fileID: 1616181229747704365, guid: 18f4e7f0531c18e4eba8ebf70f3aa5c4, type: 3}
  m_PrefabInstance: {fileID: 6266409031811159416}
  m_PrefabAsset: {fileID: 0}
