%YAML 1.1
%TAG !u! tag:unity3d.com,2011:
--- !u!1001 &2236100578697190930
PrefabInstance:
  m_ObjectHideFlags: 0
  serializedVersion: 2
  m_Modification:
    m_TransformParent: {fileID: 0}
    m_Modifications:
    - target: {fileID: 1278289218460232613, guid: 0cec18b6f9d1d474e99f810ff7605fde, type: 3}
      propertyPath: NPCId
      value: Plumber_6
      objectReference: {fileID: 0}
    - target: {fileID: 5609090814643245613, guid: 0cec18b6f9d1d474e99f810ff7605fde, type: 3}
      propertyPath: m_Name
      value: Plumber_6_IO
      objectReference: {fileID: 0}
    - target: {fileID: 6592238232531977926, guid: 0cec18b6f9d1d474e99f810ff7605fde, type: 3}
      propertyPath: m_RootOrder
      value: 0
      objectReference: {fileID: 0}
    - target: {fileID: 6592238232531977926, guid: 0cec18b6f9d1d474e99f810ff7605fde, type: 3}
      propertyPath: m_LocalPosition.x
      value: -5.38
      objectReference: {fileID: 0}
    - target: {fileID: 6592238232531977926, guid: 0cec18b6f9d1d474e99f810ff7605fde, type: 3}
      propertyPath: m_LocalPosition.y
      value: 0.42143
      objectReference: {fileID: 0}
    - target: {fileID: 6592238232531977926, guid: 0cec18b6f9d1d474e99f810ff7605fde, type: 3}
      propertyPath: m_LocalPosition.z
      value: -4.03
      objectReference: {fileID: 0}
    - target: {fileID: 6592238232531977926, guid: 0cec18b6f9d1d474e99f810ff7605fde, type: 3}
      propertyPath: m_LocalRotation.w
      value: 1
      objectReference: {fileID: 0}
    - target: {fileID: 6592238232531977926, guid: 0cec18b6f9d1d474e99f810ff7605fde, type: 3}
      propertyPath: m_LocalRotation.x
      value: 0
      objectReference: {fileID: 0}
    - target: {fileID: 6592238232531977926, guid: 0cec18b6f9d1d474e99f810ff7605fde, type: 3}
      propertyPath: m_LocalRotation.y
      value: 0
      objectReference: {fileID: 0}
    - target: {fileID: 6592238232531977926, guid: 0cec18b6f9d1d474e99f810ff7605fde, type: 3}
      propertyPath: m_LocalRotation.z
      value: 0
      objectReference: {fileID: 0}
    - target: {fileID: 6592238232531977926, guid: 0cec18b6f9d1d474e99f810ff7605fde, type: 3}
      propertyPath: m_LocalEulerAnglesHint.x
      value: 0
      objectReference: {fileID: 0}
    - target: {fileID: 6592238232531977926, guid: 0cec18b6f9d1d474e99f810ff7605fde, type: 3}
      propertyPath: m_LocalEulerAnglesHint.y
      value: 0
      objectReference: {fileID: 0}
    - target: {fileID: 6592238232531977926, guid: 0cec18b6f9d1d474e99f810ff7605fde, type: 3}
      propertyPath: m_LocalEulerAnglesHint.z
      value: 0
      objectReference: {fileID: 0}
    - target: {fileID: 8323005399935018890, guid: 0cec18b6f9d1d474e99f810ff7605fde, type: 3}
      propertyPath: m_Name
      value: Plumber_chair_6 Variant
      objectReference: {fileID: 0}
    - target: {fileID: 8323005399935018890, guid: 0cec18b6f9d1d474e99f810ff7605fde, type: 3}
      propertyPath: m_IsActive
      value: 1
      objectReference: {fileID: 0}
    m_RemovedComponents: []
  m_SourcePrefab: {fileID: 100100000, guid: 0cec18b6f9d1d474e99f810ff7605fde, type: 3}
