%YAML 1.1
%TAG !u! tag:unity3d.com,2011:
--- !u!114 &-8575500627704177022
MonoBehaviour:
  m_ObjectHideFlags: 11
  m_CorrespondingSourceObject: {fileID: 0}
  m_PrefabInstance: {fileID: 0}
  m_PrefabAsset: {fileID: 0}
  m_GameObject: {fileID: 0}
  m_Enabled: 1
  m_EditorHideFlags: 0
  m_Script: {fileID: 11500000, guid: d0353a89b1f911e48b9e16bdc9f2e058, type: 3}
  m_Name: 
  m_EditorClassIdentifier: 
  version: 5
--- !u!21 &2100000
Material:
  serializedVersion: 8
  m_ObjectHideFlags: 0
  m_CorrespondingSourceObject: {fileID: 0}
  m_PrefabInstance: {fileID: 0}
  m_PrefabAsset: {fileID: 0}
  m_Name: Glow_Elixir
  m_Shader: {fileID: 4800000, guid: 8516d7a69675844a7a0b7095af7c46af, type: 3}
  m_ValidKeywords:
  - _EMISSION
  - _SURFACE_TYPE_TRANSPARENT
  m_InvalidKeywords:
  - _FLIPBOOKBLENDING_OFF
  m_LightmapFlags: 2
  m_EnableInstancingVariants: 0
  m_DoubleSidedGI: 1
  m_CustomRenderQueue: 3000
  stringTagMap:
    RenderType: Transparent
  disabledShaderPasses:
  - SHADOWCASTER
  - DepthOnly
  m_SavedProperties:
    serializedVersion: 3
    m_TexEnvs:
    - _BaseMap:
        m_Texture: {fileID: 0}
        m_Scale: {x: 1, y: 1}
        m_Offset: {x: 0, y: 0}
    - _BumpMap:
        m_Texture: {fileID: 0}
        m_Scale: {x: 1, y: 1}
        m_Offset: {x: 0, y: 0}
    - _DetailAlbedoMap:
        m_Texture: {fileID: 0}
        m_Scale: {x: 1, y: 1}
        m_Offset: {x: 0, y: 0}
    - _DetailMask:
        m_Texture: {fileID: 0}
        m_Scale: {x: 1, y: 1}
        m_Offset: {x: 0, y: 0}
    - _DetailNormalMap:
        m_Texture: {fileID: 0}
        m_Scale: {x: 1, y: 1}
        m_Offset: {x: 0, y: 0}
    - _EmissionMap:
        m_Texture: {fileID: 0}
        m_Scale: {x: 1, y: 1}
        m_Offset: {x: 0, y: 0}
    - _MainTex:
        m_Texture: {fileID: 0}
        m_Scale: {x: 1, y: 1}
        m_Offset: {x: 0, y: 0}
    - _MetallicGlossMap:
        m_Texture: {fileID: 0}
        m_Scale: {x: 1, y: 1}
        m_Offset: {x: 0, y: 0}
    - _OcclusionMap:
        m_Texture: {fileID: 0}
        m_Scale: {x: 1, y: 1}
        m_Offset: {x: 0, y: 0}
    - _Palette:
        m_Texture: {fileID: 0}
        m_Scale: {x: 1, y: 1}
        m_Offset: {x: 0, y: 0}
    - _ParallaxMap:
        m_Texture: {fileID: 0}
        m_Scale: {x: 1, y: 1}
        m_Offset: {x: 0, y: 0}
    - _Shadow_Ramp:
        m_Texture: {fileID: 2800000, guid: fc04cbd926118a94983d9726e3af1800, type: 3}
        m_Scale: {x: 1, y: 1}
        m_Offset: {x: 0, y: 0}
    - _SpecGlossMap:
        m_Texture: {fileID: 0}
        m_Scale: {x: 1, y: 1}
        m_Offset: {x: 0, y: 0}
    - unity_Lightmaps:
        m_Texture: {fileID: 0}
        m_Scale: {x: 1, y: 1}
        m_Offset: {x: 0, y: 0}
    - unity_LightmapsInd:
        m_Texture: {fileID: 0}
        m_Scale: {x: 1, y: 1}
        m_Offset: {x: 0, y: 0}
    - unity_ShadowMasks:
        m_Texture: {fileID: 0}
        m_Scale: {x: 1, y: 1}
        m_Offset: {x: 0, y: 0}
    m_Ints: []
    m_Floats:
    - Boolean_972AD283: 0
    - Vector1_DA071CA6: 0.36
    - _AlphaClip: 0
    - _Blend: 2
    - _BlendOp: 0
    - _BlinkSpeed: 5
    - _BumpScale: 1
    - _CameraFadingEnabled: 0
    - _CameraFarFadeDistance: 2
    - _CameraNearFadeDistance: 1
    - _ClearCoatMask: 0
    - _ClearCoatSmoothness: 0
    - _ColorMode: 0
    - _Color_Front_On: 0
    - _Color_Side_On: 0
    - _Color_Top_On: 0
    - _Cull: 0
    - _Cutoff: 0.5
    - _DetailAlbedoMapScale: 1
    - _DetailNormalMapScale: 1
    - _DistortionBlend: 0.5
    - _DistortionEnabled: 0
    - _DistortionStrength: 1
    - _DistortionStrengthScaled: 0.1
    - _DstBlend: 1
    - _EmissionEnabled: 0
    - _EnvironmentReflections: 1
    - _FlipbookBlending: 0
    - _FlipbookMode: 0
    - _GlossMapScale: 0
    - _Glossiness: 0
    - _GlossyReflections: 0
    - _InvFade: 1
    - _LightingEnabled: 0
    - _Metallic: 0
    - _Mode: 3
    - _OcclusionStrength: 1
    - _Palette_Brightness: 2
    - _Parallax: 0.005
    - _QueueOffset: 0
    - _ReceiveShadows: 1
    - _SampleGI: 0
    - _Smoothness: 0.5
    - _SmoothnessSource: 0
    - _SmoothnessTextureChannel: 0
    - _SoftParticlesEnabled: 0
    - _SoftParticlesFarFadeDistance: 1
    - _SoftParticlesNearFadeDistance: 0
    - _SpecularHighlights: 1
    - _SrcBlend: 5
    - _Surface: 1
    - _WorkflowMode: 1
    - _ZWrite: 0
    m_Colors:
    - Vector2_62249DB0: {r: 0.01, g: 0.99, b: 0, a: 0}
    - Vector2_A9889F12: {r: 0.01, g: 0.99, b: 0, a: 0}
    - _BaseColor: {r: 0.6707385, g: 0, b: 0.7075472, a: 0.39215687}
    - _BaseColorAddSubDiff: {r: 1, g: 0, b: 0, a: 0}
    - _BlinkStrength: {r: 0, g: 0, b: 0, a: 0}
    - _Blink_Tint: {r: 2, g: 2, b: 2, a: 0}
    - _CameraFadeParams: {r: 0, g: Infinity, b: 0, a: 0}
    - _Color: {r: 0.6707385, g: 0, b: 0.7075472, a: 0.39215687}
    - _ColorAddSubDiff: {r: 0, g: 0, b: 0, a: 0}
    - _ColorFront: {r: 1, g: 1, b: 1, a: 0}
    - _ColorSide: {r: 1, g: 1, b: 1, a: 0}
    - _ColorTop: {r: 1, g: 1, b: 1, a: 0}
    - _EmissionColor: {r: 33.36435, g: 0, b: 33.89676, a: 1}
    - _Palette_tint: {r: 1, g: 1, b: 1, a: 0}
    - _SoftParticleFadeParams: {r: 0, g: 0, b: 0, a: 0}
    - _SpecColor: {r: 0.19999996, g: 0.19999996, b: 0.19999996, a: 1}
    - _TintColor: {r: 1, g: 0.87002265, b: 0, a: 0}
  m_BuildTextureStacks: []
