%YAML 1.1
%TAG !u! tag:unity3d.com,2011:
--- !u!21 &2100000
Material:
  serializedVersion: 8
  m_ObjectHideFlags: 0
  m_CorrespondingSourceObject: {fileID: 0}
  m_PrefabInstance: {fileID: 0}
  m_PrefabAsset: {fileID: 0}
  m_Name: IDLE_motel_material_transparency
  m_Shader: {fileID: 4800000, guid: 7ffc1bc2bbb1ef64f84b552b2d2f0619, type: 3}
  m_ValidKeywords:
  - TCP2_REFLECTIONS_FRESNEL
  - TCP2_RIM_LIGHTING_LIGHTMASK
  - _ALPHAPREMULTIPLY_ON
  - _RECEIVE_SHADOWS_OFF
  m_InvalidKeywords:
  - TCP2_OUTLINE_CONST_SIZE
  - TCP2_UV_NORMALS_FULL
  - _SPECULAR_SETUP
  m_LightmapFlags: 4
  m_EnableInstancingVariants: 0
  m_DoubleSidedGI: 0
  m_CustomRenderQueue: 3000
  stringTagMap: {}
  disabledShaderPasses: []
  m_SavedProperties:
    serializedVersion: 3
    m_TexEnvs:
    - Foam_Texture:
        m_Texture: {fileID: 0}
        m_Scale: {x: 1, y: 1}
        m_Offset: {x: 0, y: 0}
    - _BaseMap:
        m_Texture: {fileID: 2800000, guid: d42d34e80c60be448aee7bfe7878b9c5, type: 3}
        m_Scale: {x: 1, y: 1}
        m_Offset: {x: 0, y: 0}
    - _BumpMap:
        m_Texture: {fileID: 0}
        m_Scale: {x: 1, y: 1}
        m_Offset: {x: 0, y: 0}
    - _DetailAlbedoMap:
        m_Texture: {fileID: 0}
        m_Scale: {x: 1, y: 1}
        m_Offset: {x: 0, y: 0}
    - _DetailMask:
        m_Texture: {fileID: 0}
        m_Scale: {x: 1, y: 1}
        m_Offset: {x: 0, y: 0}
    - _DetailNormalMap:
        m_Texture: {fileID: 0}
        m_Scale: {x: 1, y: 1}
        m_Offset: {x: 0, y: 0}
    - _EmissionMap:
        m_Texture: {fileID: 0}
        m_Scale: {x: 1, y: 1}
        m_Offset: {x: 0, y: 0}
    - _Flow_Map:
        m_Texture: {fileID: 0}
        m_Scale: {x: 1, y: 1}
        m_Offset: {x: 0, y: 0}
    - _MainTex:
        m_Texture: {fileID: 2800000, guid: fb1da198b9e46be43995c30100aedb08, type: 3}
        m_Scale: {x: 1, y: 1}
        m_Offset: {x: 0, y: 0}
    - _MatCapMask:
        m_Texture: {fileID: 0}
        m_Scale: {x: 1, y: 1}
        m_Offset: {x: 0, y: 0}
    - _MatCapTex:
        m_Texture: {fileID: 0}
        m_Scale: {x: 1, y: 1}
        m_Offset: {x: 0, y: 0}
    - _MetallicGlossMap:
        m_Texture: {fileID: 0}
        m_Scale: {x: 1, y: 1}
        m_Offset: {x: 0, y: 0}
    - _NoiseTexture:
        m_Texture: {fileID: 0}
        m_Scale: {x: 1, y: 1}
        m_Offset: {x: 0, y: 0}
    - _OcclusionMap:
        m_Texture: {fileID: 0}
        m_Scale: {x: 1, y: 1}
        m_Offset: {x: 0, y: 0}
    - _Palette:
        m_Texture: {fileID: 2800000, guid: 6478caf509aed44448af6a1f6e509b5f, type: 3}
        m_Scale: {x: 1, y: 1}
        m_Offset: {x: 0, y: 0}
    - _ParallaxMap:
        m_Texture: {fileID: 0}
        m_Scale: {x: 1, y: 1}
        m_Offset: {x: 0, y: 0}
    - _Ramp:
        m_Texture: {fileID: 0}
        m_Scale: {x: 1, y: 1}
        m_Offset: {x: 0, y: 0}
    - _ReflectionTex:
        m_Texture: {fileID: 0}
        m_Scale: {x: 1, y: 1}
        m_Offset: {x: 0, y: 0}
    - _ShadowBaseMap:
        m_Texture: {fileID: 2800000, guid: 048b8ea8f34ab8c48bc154e893d11b62, type: 3}
        m_Scale: {x: 1, y: 1}
        m_Offset: {x: 0, y: 0}
    - _Shadow_Ramp:
        m_Texture: {fileID: 2800000, guid: fc04cbd926118a94983d9726e3af1800, type: 3}
        m_Scale: {x: 1, y: 1}
        m_Offset: {x: 0, y: 0}
    - _SpecGlossMap:
        m_Texture: {fileID: 0}
        m_Scale: {x: 1, y: 1}
        m_Offset: {x: 0, y: 0}
    - _texcoord:
        m_Texture: {fileID: 0}
        m_Scale: {x: 1, y: 1}
        m_Offset: {x: 0, y: 0}
    - unity_Lightmaps:
        m_Texture: {fileID: 0}
        m_Scale: {x: 1, y: 1}
        m_Offset: {x: 0, y: 0}
    - unity_LightmapsInd:
        m_Texture: {fileID: 0}
        m_Scale: {x: 1, y: 1}
        m_Offset: {x: 0, y: 0}
    - unity_ShadowMasks:
        m_Texture: {fileID: 0}
        m_Scale: {x: 1, y: 1}
        m_Offset: {x: 0, y: 0}
    m_Ints: []
    m_Floats:
    - Boolean_972AD283: 0
    - Flow_Strength: 0.0075
    - Size: 1
    - Vector1_11DBAA97: 7
    - Vector1_13D64529: 1
    - Vector1_1F9CAFC9: 1
    - Vector1_48628532: 5
    - Vector1_8501262E: 0.36
    - Vector1_A9BB79D4: 1
    - Vector1_B059EC59: 0.1
    - Vector1_D40C9D7C: 1
    - Vector1_DA071CA6: 0.36
    - Vector1_DAEDEC20: 5
    - Vector1_E42CDF58: 1
    - _AlphaClip: 0
    - _Blend: 0
    - _BlinkSpeed: 5
    - _BumpScale: 1
    - _ClearCoatMask: 0
    - _ClearCoatSmoothness: 0
    - _Color_Front_On: 0
    - _Color_Side_On: 0
    - _Color_Top_On: 0
    - _Cull: 2
    - _Cutoff: 0.5
    - _DetailAlbedoMapScale: 1
    - _DetailNormalMapScale: 1
    - _DirectIntensityOutline: 1
    - _DstBlend: 10
    - _DstBlendOutline: 10
    - _EmissionChannel: 4
    - _EnvironmentReflections: 1
    - _Flow_Speed: 1
    - _Foam_Speed: 0.0025
    - _FresnelMax: 1.5
    - _FresnelMin: 0
    - _GlossMapScale: 1
    - _Glossiness: 0.539
    - _GlossinessSource: 0
    - _GlossyReflections: 1
    - _IndirectIntensity: 1
    - _IndirectIntensityOutline: 0
    - _MBAmplitude: 1.5
    - _MBAmplitudeOffset: 2
    - _MBDefaultBending: 0
    - _MBFrequency: 1.11
    - _MBFrequencyOffset: 0
    - _MBMaxHeight: 10
    - _MBPhase: 1
    - _MBWindDir: 0
    - _MBWindDirOffset: 20
    - _MatCapMaskChannel: 0
    - _MatCapType: 0
    - _Metallic: 0
    - _Mode: 0
    - _NormalsSource: 0
    - _NormalsUVType: 0
    - _OcclusionChannel: 0
    - _OcclusionStrength: 1
    - _Offset1: 0
    - _Offset2: 0
    - _Outline: 0
    - _OutlineLightingType: 0
    - _OutlineLightingTypeURP: 0
    - _OutlineMinWidth: 1
    - _OutlinePixelSizeType: 1
    - _OutlineTextureLOD: 5
    - _OutlineTextureType: 0
    - _OutlineWidth: 1
    - _Palette_Brightness: 2
    - _Parallax: 0.02
    - _QueueOffset: 0
    - _RampBands: 13
    - _RampBandsSmoothing: 0.686
    - _RampOffset: 0
    - _RampScale: 1
    - _RampSmooth: 0.131
    - _RampSmoothAdd: 0.779
    - _RampSmoothing: 1
    - _RampThreshold: 0.319
    - _RampType: 0
    - _ReceiveShadows: 1
    - _ReceiveShadowsOff: 0
    - _ReflectionMapType: 0
    - _ReflectionSmoothness: 0.5
    - _RenderingMode: 2
    - _RimMax: 1
    - _RimMin: 0.5
    - _RimStrength: 0.5
    - _SampleGI: 0
    - _Shininess: 0.1
    - _SingleIndirectColor: 0
    - _Smoothness: 1
    - _SmoothnessSource: 0
    - _SmoothnessTextureChannel: 0
    - _SpecBlend: 1
    - _SpecSmooth: 1
    - _SpecSource: 0
    - _SpecularHighlights: 1
    - _SpecularMapType: 0
    - _SpecularRoughness: 1
    - _SpecularToonSize: 0.001
    - _SpecularToonSmoothness: 1
    - _SpecularType: 0
    - _SrcBlend: 1
    - _SrcBlendOutline: 5
    - _Surface: 0
    - _TCP2_DISABLE_WRAPPED_LIGHT: 1
    - _TCP2_OUTLINE_CONST_SIZE: 0
    - _TCP2_OUTLINE_TEXTURED: 0
    - _TCP2_RAMPTEXT: 1
    - _TCP2_SPEC_TOON: 0
    - _TCP2_STYLIZED_FRESNEL: 0
    - _TCP2_ZSMOOTH_ON: 0
    - _TexLod: 0
    - _UVSec: 0
    - _UseAlphaTest: 0
    - _UseEmission: 0
    - _UseFresnelReflections: 1
    - _UseMatCap: 0
    - _UseMatCapMask: 0
    - _UseMobileMode: 1
    - _UseNormalMap: 0
    - _UseOcclusion: 0
    - _UseOutline: 0
    - _UseReflections: 0
    - _UseRim: 0
    - _UseRimLightMask: 1
    - _UseShadowTexture: 0
    - _UseSpecular: 0
    - _Water_Opacity: 1
    - _Wave_Speed: 0.25
    - _WorkflowMode: 0
    - _ZSmooth: -0.5
    - _ZTest: 0
    - _ZWrite: 0
    - __dirty: 1
    m_Colors:
    - Color_924F486B: {r: 0.4103774, g: 0.9093323, b: 1, a: 0}
    - Color_D8BAD56: {r: 0, g: 0.7098851, b: 1, a: 0}
    - Vector2_62249DB0: {r: 0.01, g: 0.99, b: 0, a: 0}
    - Vector2_A9889F12: {r: 0.01, g: 0.99, b: 0, a: 0}
    - _BaseColor: {r: 1, g: 1, b: 1, a: 0.78431374}
    - _BlinkStrength: {r: 0, g: 0, b: 0, a: 0}
    - _Blink_Tint: {r: 2, g: 2, b: 2, a: 0}
    - _Color: {r: 1, g: 1, b: 1, a: 1}
    - _ColorFront: {r: 1, g: 1, b: 1, a: 0}
    - _ColorSide: {r: 1, g: 1, b: 1, a: 0}
    - _ColorTop: {r: 1, g: 1, b: 1, a: 0}
    - _DarkFoamColor: {r: 0.1803922, g: 0.5607843, b: 0.8705882, a: 0}
    - _EmissionColor: {r: 0, g: 0, b: 0, a: 1}
    - _HColor: {r: 1, g: 1, b: 1, a: 1}
    - _Light_Foam_Color: {r: 0.8490566, g: 0.8490566, b: 0.8490566, a: 1}
    - _MatCapColor: {r: 1, g: 1, b: 1, a: 1}
    - _NoisePannerSpeed: {r: 0.05, g: 0.03, b: 0, a: 0}
    - _NoiseTextureTilling: {r: 1, g: 1, b: 1, a: 1}
    - _OutlineColor: {r: 0.3018868, g: 0.3018868, b: 0.3018868, a: 1}
    - _Palette_tint: {r: 1, g: 1, b: 1, a: 0}
    - _ReflectionColor: {r: 1, g: 1, b: 1, a: 1}
    - _RimColor: {r: 0.8, g: 0.8, b: 0.8, a: 0.5}
    - _SColor: {r: 1, g: 1, b: 1, a: 1}
    - _SpecColor: {r: 0.26415092, g: 0.26415092, b: 0.26415092, a: 1}
    - _SpecularColor: {r: 1, g: 0.9147025, b: 0.75, a: 1}
    - _WaterColor: {r: 0.2078431, g: 0.6431373, b: 1, a: 0}
  m_BuildTextureStacks: []
--- !u!114 &3362774586090756434
MonoBehaviour:
  m_ObjectHideFlags: 11
  m_CorrespondingSourceObject: {fileID: 0}
  m_PrefabInstance: {fileID: 0}
  m_PrefabAsset: {fileID: 0}
  m_GameObject: {fileID: 0}
  m_Enabled: 1
  m_EditorHideFlags: 0
  m_Script: {fileID: 11500000, guid: d0353a89b1f911e48b9e16bdc9f2e058, type: 3}
  m_Name: 
  m_EditorClassIdentifier: 
  version: 4
