%YAML 1.1
%TAG !u! tag:unity3d.com,2011:
--- !u!1001 &3684701316424804479
PrefabInstance:
  m_ObjectHideFlags: 0
  serializedVersion: 2
  m_Modification:
    m_TransformParent: {fileID: 0}
    m_Modifications:
    - target: {fileID: 4732144487104739987, guid: 6bbbae214a2759344badf90c44edf480, type: 3}
      propertyPath: m_Name
      value: L1_icecream_table_4 Variant
      objectReference: {fileID: 0}
    - target: {fileID: 5395353011109437481, guid: 6bbbae214a2759344badf90c44edf480, type: 3}
      propertyPath: m_RootOrder
      value: 0
      objectReference: {fileID: 0}
    - target: {fileID: 5395353011109437481, guid: 6bbbae214a2759344badf90c44edf480, type: 3}
      propertyPath: m_LocalPosition.x
      value: 21.66
      objectReference: {fileID: 0}
    - target: {fileID: 5395353011109437481, guid: 6bbbae214a2759344badf90c44edf480, type: 3}
      propertyPath: m_LocalPosition.y
      value: 0.31
      objectReference: {fileID: 0}
    - target: {fileID: 5395353011109437481, guid: 6bbbae214a2759344badf90c44edf480, type: 3}
      propertyPath: m_LocalPosition.z
      value: -0.83
      objectReference: {fileID: 0}
    - target: {fileID: 5395353011109437481, guid: 6bbbae214a2759344badf90c44edf480, type: 3}
      propertyPath: m_LocalRotation.w
      value: 1
      objectReference: {fileID: 0}
    - target: {fileID: 5395353011109437481, guid: 6bbbae214a2759344badf90c44edf480, type: 3}
      propertyPath: m_LocalRotation.x
      value: -0
      objectReference: {fileID: 0}
    - target: {fileID: 5395353011109437481, guid: 6bbbae214a2759344badf90c44edf480, type: 3}
      propertyPath: m_LocalRotation.y
      value: -0
      objectReference: {fileID: 0}
    - target: {fileID: 5395353011109437481, guid: 6bbbae214a2759344badf90c44edf480, type: 3}
      propertyPath: m_LocalRotation.z
      value: -0
      objectReference: {fileID: 0}
    - target: {fileID: 5395353011109437481, guid: 6bbbae214a2759344badf90c44edf480, type: 3}
      propertyPath: m_LocalEulerAnglesHint.x
      value: 0
      objectReference: {fileID: 0}
    - target: {fileID: 5395353011109437481, guid: 6bbbae214a2759344badf90c44edf480, type: 3}
      propertyPath: m_LocalEulerAnglesHint.y
      value: 0
      objectReference: {fileID: 0}
    - target: {fileID: 5395353011109437481, guid: 6bbbae214a2759344badf90c44edf480, type: 3}
      propertyPath: m_LocalEulerAnglesHint.z
      value: 0
      objectReference: {fileID: 0}
    m_RemovedComponents: []
  m_SourcePrefab: {fileID: 100100000, guid: 6bbbae214a2759344badf90c44edf480, type: 3}
