%YAML 1.1
%TAG !u! tag:unity3d.com,2011:
--- !u!114 &11400000
MonoBehaviour:
  m_ObjectHideFlags: 0
  m_CorrespondingSourceObject: {fileID: 0}
  m_PrefabInstance: {fileID: 0}
  m_PrefabAsset: {fileID: 0}
  m_GameObject: {fileID: 0}
  m_Enabled: 1
  m_EditorHideFlags: 0
  m_Script: {fileID: 11500000, guid: 11f525d1c8134eaab55f0e42844c5f03, type: 3}
  m_Name: PopupText
  m_EditorClassIdentifier: 
  m_minUseInterval: 0.15
  _popUpPrefab: {fileID: -738736016726637956, guid: e35f6d8f15a1a5347834208bbfd37a05, type: 3}
  _worldpopUpPrefab: {fileID: 7975546598171402241, guid: f21238036051a3040ad351b04815f72c, type: 3}
