%YAML 1.1
%TAG !u! tag:unity3d.com,2011:
--- !u!114 &11400000
MonoBehaviour:
  m_ObjectHideFlags: 0
  m_CorrespondingSourceObject: {fileID: 0}
  m_PrefabInstance: {fileID: 0}
  m_PrefabAsset: {fileID: 0}
  m_GameObject: {fileID: 0}
  m_Enabled: 1
  m_EditorHideFlags: 0
  m_Script: {fileID: 11500000, guid: 48d16c5466ba40a58a6c870f8bea2318, type: 3}
  m_Name: BG_Ambient 1
  m_EditorClassIdentifier: 
  m_clips:
  - {fileID: 8300000, guid: eb0b2fd786bd3394b96225e9fe1b723e, type: 3}
  m_volume: {x: 0, y: 0}
  m_pitch: {x: 1, y: 1}
