%YAML 1.1
%TAG !u! tag:unity3d.com,2011:
--- !u!1001 &649453236812859585
PrefabInstance:
  m_ObjectHideFlags: 0
  serializedVersion: 2
  m_Modification:
    m_TransformParent: {fileID: 0}
    m_Modifications:
    - target: {fileID: 3410523735200036957, guid: b5ed68d82486c4340820982e3fc8fe53, type: 3}
      propertyPath: NPCId
      value: Cleaner_3
      objectReference: {fileID: 0}
    - target: {fileID: 5577911898506179698, guid: b5ed68d82486c4340820982e3fc8fe53, type: 3}
      propertyPath: m_Name
      value: Cleaner_chair_3 Variant
      objectReference: {fileID: 0}
    - target: {fileID: 7319947806166947134, guid: b5ed68d82486c4340820982e3fc8fe53, type: 3}
      propertyPath: m_RootOrder
      value: 0
      objectReference: {fileID: 0}
    - target: {fileID: 7319947806166947134, guid: b5ed68d82486c4340820982e3fc8fe53, type: 3}
      propertyPath: m_LocalPosition.x
      value: 5.94
      objectReference: {fileID: 0}
    - target: {fileID: 7319947806166947134, guid: b5ed68d82486c4340820982e3fc8fe53, type: 3}
      propertyPath: m_LocalPosition.y
      value: -0.008569539
      objectReference: {fileID: 0}
    - target: {fileID: 7319947806166947134, guid: b5ed68d82486c4340820982e3fc8fe53, type: 3}
      propertyPath: m_LocalPosition.z
      value: -0.35000086
      objectReference: {fileID: 0}
    - target: {fileID: 7319947806166947134, guid: b5ed68d82486c4340820982e3fc8fe53, type: 3}
      propertyPath: m_LocalRotation.w
      value: 1
      objectReference: {fileID: 0}
    - target: {fileID: 7319947806166947134, guid: b5ed68d82486c4340820982e3fc8fe53, type: 3}
      propertyPath: m_LocalRotation.x
      value: -0
      objectReference: {fileID: 0}
    - target: {fileID: 7319947806166947134, guid: b5ed68d82486c4340820982e3fc8fe53, type: 3}
      propertyPath: m_LocalRotation.y
      value: -0
      objectReference: {fileID: 0}
    - target: {fileID: 7319947806166947134, guid: b5ed68d82486c4340820982e3fc8fe53, type: 3}
      propertyPath: m_LocalRotation.z
      value: -0
      objectReference: {fileID: 0}
    - target: {fileID: 7319947806166947134, guid: b5ed68d82486c4340820982e3fc8fe53, type: 3}
      propertyPath: m_LocalEulerAnglesHint.x
      value: 0
      objectReference: {fileID: 0}
    - target: {fileID: 7319947806166947134, guid: b5ed68d82486c4340820982e3fc8fe53, type: 3}
      propertyPath: m_LocalEulerAnglesHint.y
      value: 0
      objectReference: {fileID: 0}
    - target: {fileID: 7319947806166947134, guid: b5ed68d82486c4340820982e3fc8fe53, type: 3}
      propertyPath: m_LocalEulerAnglesHint.z
      value: 0
      objectReference: {fileID: 0}
    - target: {fileID: 8304222515624788437, guid: b5ed68d82486c4340820982e3fc8fe53, type: 3}
      propertyPath: m_Name
      value: Cleaner_3_IO
      objectReference: {fileID: 0}
    m_RemovedComponents: []
  m_SourcePrefab: {fileID: 100100000, guid: b5ed68d82486c4340820982e3fc8fe53, type: 3}
