%YAML 1.1
%TAG !u! tag:unity3d.com,2011:
--- !u!114 &11400000
MonoBehaviour:
  m_ObjectHideFlags: 0
  m_CorrespondingSourceObject: {fileID: 0}
  m_PrefabInstance: {fileID: 0}
  m_PrefabAsset: {fileID: 0}
  m_GameObject: {fileID: 0}
  m_Enabled: 1
  m_EditorHideFlags: 0
  m_Script: {fileID: 11500000, guid: cb1bcc11c4194538876f342c434d886d, type: 3}
  m_Name: Loaders_working_scheme
  m_EditorClassIdentifier: 
  Icon: {fileID: 21300000, guid: 222777afc6d5238408182db04118a0f8, type: 3}
  Prefix: +
