%YAML 1.1
%TAG !u! tag:unity3d.com,2011:
--- !u!114 &11400000
MonoBehaviour:
  m_ObjectHideFlags: 0
  m_CorrespondingSourceObject: {fileID: 0}
  m_PrefabInstance: {fileID: 0}
  m_PrefabAsset: {fileID: 0}
  m_GameObject: {fileID: 0}
  m_Enabled: 1
  m_EditorHideFlags: 0
  m_Script: {fileID: 11500000, guid: 1d965e1638b3c6547a461c53a29817bc, type: 3}
  m_Name: RoomsContainer
  m_EditorClassIdentifier: 
  rooms:
  - {fileID: 11400000, guid: 2bb43c32f6d3cf14b805ae55c2016f74, type: 2}
  - {fileID: 11400000, guid: ef6eb6ace1a938d40a55085b6f0a1f94, type: 2}
  - {fileID: 11400000, guid: 49eb1c62f767c96429d8a3b495539766, type: 2}
  - {fileID: 11400000, guid: ae31a0b64816ef842b8c90f2cf4bcbcf, type: 2}
