%YAML 1.1
%TAG !u! tag:unity3d.com,2011:
--- !u!114 &11400000
MonoBehaviour:
  m_ObjectHideFlags: 0
  m_CorrespondingSourceObject: {fileID: 0}
  m_PrefabInstance: {fileID: 0}
  m_PrefabAsset: {fileID: 0}
  m_GameObject: {fileID: 0}
  m_Enabled: 1
  m_EditorHideFlags: 0
  m_Script: {fileID: 11500000, guid: 9010555a9e831554faaf5d52be6291e7, type: 3}
  m_Name: CustomersDescriptions
  m_EditorClassIdentifier: 
  m_useGuid: 1
  m_saveId: customers_descriptions
  m_guid: da8d3949-2cbb-4620-8b66-1ca7ec0473a0
  WebAssets:
    DocumentId: 1eXiRDsi4lzzqXstPTMR_RiuV9pJqOTrG
    FileAssets:
    - SheetId: 967606019
      TextAsset: {fileID: 4900000, guid: e2cc2079551a5c846ac493efa5eed7d0, type: 3}
  descriptions:
  - Name: Alex Moore
    Gender: Male
    ForKids: 1
    IconName: CustomerIcons/Profile 01
    Location: New York
    Profession: Office clerk
    Description: Good looking guy with a huge basket.
  - Name: Alex Moore
    Gender: Male
    ForKids: 0
    IconName: CustomerIcons/Profile 02
    Location: New York
    Profession: Office clerk
    Description: Good looking guy with a huge basket.
  - Name: Alex Moore
    Gender: Male
    ForKids: 1
    IconName: CustomerIcons/Profile 03
    Location: New York
    Profession: Office clerk
    Description: Good looking guy with a huge basket.
  - Name: Alex Moore
    Gender: Male
    ForKids: 1
    IconName: CustomerIcons/Profile 04
    Location: New York
    Profession: Office clerk
    Description: Good looking guy with a huge basket.
  - Name: Alex Moore
    Gender: Female
    ForKids: 1
    IconName: CustomerIcons/Profile 05
    Location: New York
    Profession: Office clerk
    Description: Good looking girl with a huge basket.
  - Name: Alex Moore
    Gender: Male
    ForKids: 0
    IconName: CustomerIcons/Profile 06
    Location: New York
    Profession: Office clerk
    Description: Good looking guy with a huge basket.
  - Name: Alex Moore
    Gender: Male
    ForKids: 0
    IconName: CustomerIcons/Profile 07
    Location: New York
    Profession: Office clerk
    Description: Good looking guy with a huge basket.
  - Name: Alex Moore
    Gender: Female
    ForKids: 1
    IconName: CustomerIcons/Profile 08
    Location: New York
    Profession: Office clerk
    Description: Good looking girl with a huge basket.
  - Name: Alex Moore
    Gender: Male
    ForKids: 0
    IconName: CustomerIcons/Profile 09
    Location: New York
    Profession: Office clerk
    Description: Good looking guy with a huge basket.
  - Name: Alex Moore
    Gender: Male
    ForKids: 0
    IconName: CustomerIcons/Profile 10
    Location: New York
    Profession: Office clerk
    Description: Good looking guy with a huge basket.
  - Name: Alex Moore
    Gender: Male
    ForKids: 0
    IconName: CustomerIcons/Profile 01
    Location: New York
    Profession: Office clerk
    Description: Good looking guy with a huge basket.
  - Name: Alex Moore
    Gender: Male
    ForKids: 0
    IconName: CustomerIcons/Profile 02
    Location: New York
    Profession: Office clerk
    Description: Good looking guy with a huge basket.
  - Name: Alex Moore
    Gender: Male
    ForKids: 0
    IconName: CustomerIcons/Profile 03
    Location: New York
    Profession: Office clerk
    Description: Good looking guy with a huge basket.
  - Name: Alex Moore
    Gender: Male
    ForKids: 0
    IconName: CustomerIcons/Profile 04
    Location: New York
    Profession: Office clerk
    Description: Good looking guy with a huge basket.
  - Name: Alex Moore
    Gender: Male
    ForKids: 0
    IconName: CustomerIcons/Profile 05
    Location: New York
    Profession: Office clerk
    Description: Good looking guy with a huge basket.
  - Name: Alex Moore
    Gender: Male
    ForKids: 0
    IconName: CustomerIcons/Profile 06
    Location: New York
    Profession: Office clerk
    Description: Good looking guy with a huge basket.
  - Name: Alex Moore
    Gender: Male
    ForKids: 1
    IconName: CustomerIcons/Profile 07
    Location: New York
    Profession: Office clerk
    Description: Good looking guy with a huge basket.
  - Name: Alex Moore
    Gender: Male
    ForKids: 1
    IconName: CustomerIcons/Profile 08
    Location: New York
    Profession: Office clerk
    Description: Good looking guy with a huge basket.
  - Name: Alex Moore
    Gender: Male
    ForKids: 1
    IconName: CustomerIcons/Profile 09
    Location: New York
    Profession: Office clerk
    Description: Good looking guy with a huge basket.
  - Name: Alex Moore
    Gender: Male
    ForKids: 1
    IconName: CustomerIcons/Profile 10
    Location: New York
    Profession: Office clerk
    Description: Good looking guy with a huge basket.
  - Name: Alex Moore
    Gender: Male
    ForKids: 1
    IconName: CustomerIcons/Profile 01
    Location: New York
    Profession: Office clerk
    Description: Good looking guy with a huge basket.
