%YAML 1.1
%TAG !u! tag:unity3d.com,2011:
--- !u!114 &11400000
MonoBehaviour:
  m_ObjectHideFlags: 0
  m_CorrespondingSourceObject: {fileID: 0}
  m_PrefabInstance: {fileID: 0}
  m_PrefabAsset: {fileID: 0}
  m_GameObject: {fileID: 0}
  m_Enabled: 1
  m_EditorHideFlags: 0
  m_Script: {fileID: 11500000, guid: ebc050c585304de091f3bd545bd41682, type: 3}
  m_Name: AnimalWorkersUI
  m_EditorClassIdentifier: 
  Service: {fileID: 11400000, guid: 539493926fbbe234b92ffc305b07394b, type: 2}
  BuildingsIcon: {fileID: 21300000, guid: 278b28b9204e5954c8bc0ea312f8da64, type: 3}
  BuildingsBigIcon: {fileID: 21300000, guid: 278b28b9204e5954c8bc0ea312f8da64, type: 3}
  BuildingsGreyIcon: {fileID: 21300000, guid: 5b9af17d400283340b23bccf1ef7ddec, type: 3}
  UnitsIcons:
  - {fileID: 21300000, guid: a1145bd8f010d2e4da34e4b8b29dae75, type: 3}
  - {fileID: 21300000, guid: 7aba3071aa2cf6b4bb827bcba5bf7197, type: 3}
  UnitsBigIcons:
  - {fileID: 21300000, guid: eec75884a4b94f74bac936194f2a0f82, type: 3}
  - {fileID: 21300000, guid: 899c357c1b2926446a6e0692de72cdc8, type: 3}
  UnitsGreyIcons:
  - {fileID: 21300000, guid: 0b63154dae1d2cf418add6b4cb127ddc, type: 3}
  - {fileID: 21300000, guid: 272b611e5fc831c429d4686a93de1bb9, type: 3}
  PropsIcons:
  - {fileID: 0}
  - {fileID: 0}
  - {fileID: 0}
  - {fileID: 0}
  - {fileID: 0}
  - {fileID: 0}
  - {fileID: 0}
  - {fileID: 0}
  - {fileID: 0}
  - {fileID: 0}
  PropsBigIcons:
  - {fileID: 0}
  - {fileID: 0}
  - {fileID: 0}
  - {fileID: 0}
  - {fileID: 0}
  - {fileID: 0}
  - {fileID: 0}
  - {fileID: 0}
  - {fileID: 0}
  - {fileID: 0}
  PropsGreyIcons:
  - {fileID: 0}
  - {fileID: 0}
  - {fileID: 0}
  - {fileID: 0}
  - {fileID: 0}
  - {fileID: 0}
  - {fileID: 0}
  - {fileID: 0}
  - {fileID: 0}
  - {fileID: 0}
  BuildingsStatsIcons:
  - {fileID: 21300000, guid: 237c9090cd9542a4fa7b8141ef981428, type: 3}
  - {fileID: 21300000, guid: d34177ea09beb2645afaf6d498689457, type: 3}
  UnitsStatsIcons:
  - {fileID: 21300000, guid: abc26780d80819f4680edf7ac518f5df, type: 3}
  - {fileID: 21300000, guid: b01f14c1126ce8a4781d624f11616244, type: 3}
  - {fileID: 21300000, guid: 5980761de5cc6364492a32a56ab9b920, type: 3}
  PropsStatsIcons:
  - {fileID: 21300000, guid: 516b56078150f9b43ac54f26eb0805bb, type: 3}
