%YAML 1.1
%TAG !u! tag:unity3d.com,2011:
--- !u!114 &11400000
MonoBehaviour:
  m_ObjectHideFlags: 0
  m_CorrespondingSourceObject: {fileID: 0}
  m_PrefabInstance: {fileID: 0}
  m_PrefabAsset: {fileID: 0}
  m_GameObject: {fileID: 0}
  m_Enabled: 1
  m_EditorHideFlags: 0
  m_Script: {fileID: 11500000, guid: ebc050c585304de091f3bd545bd41682, type: 3}
  m_Name: ParkingUI
  m_EditorClassIdentifier: 
  Service: {fileID: 11400000, guid: b99f9cf412925614697f77a47ff95a6e, type: 2}
  BuildingsIcon: {fileID: 21300000, guid: bb733a4b1af6eb04dbabddf0ebc5d683, type: 3}
  BuildingsBigIcon: {fileID: 21300000, guid: bb733a4b1af6eb04dbabddf0ebc5d683, type: 3}
  BuildingsGreyIcon: {fileID: 21300000, guid: e906689347cbc5c49b86dfaaf1b3c20c, type: 3}
  BuildingsNotBuyedIcon: {fileID: 21300000, guid: ee4d3cbdc45b6f4408d0505c43fece86, type: 3}
  UnitsIcons:
  - {fileID: 21300000, guid: 0538309b559047c4eaac8d8ba3b00403, type: 3}
  - {fileID: 21300000, guid: 0538309b559047c4eaac8d8ba3b00403, type: 3}
  - {fileID: 21300000, guid: 0538309b559047c4eaac8d8ba3b00403, type: 3}
  - {fileID: 21300000, guid: 0538309b559047c4eaac8d8ba3b00403, type: 3}
  - {fileID: 21300000, guid: 0538309b559047c4eaac8d8ba3b00403, type: 3}
  - {fileID: 21300000, guid: 0538309b559047c4eaac8d8ba3b00403, type: 3}
  - {fileID: 21300000, guid: 0538309b559047c4eaac8d8ba3b00403, type: 3}
  - {fileID: 21300000, guid: 0538309b559047c4eaac8d8ba3b00403, type: 3}
  - {fileID: 21300000, guid: 0538309b559047c4eaac8d8ba3b00403, type: 3}
  - {fileID: 21300000, guid: 0538309b559047c4eaac8d8ba3b00403, type: 3}
  - {fileID: 21300000, guid: 0538309b559047c4eaac8d8ba3b00403, type: 3}
  - {fileID: 21300000, guid: 0538309b559047c4eaac8d8ba3b00403, type: 3}
  - {fileID: 21300000, guid: 0538309b559047c4eaac8d8ba3b00403, type: 3}
  - {fileID: 21300000, guid: 0538309b559047c4eaac8d8ba3b00403, type: 3}
  UnitsBigIcons:
  - {fileID: 21300000, guid: d384c0f91b885f449b0899d6f996efb1, type: 3}
  - {fileID: 21300000, guid: d384c0f91b885f449b0899d6f996efb1, type: 3}
  - {fileID: 21300000, guid: d384c0f91b885f449b0899d6f996efb1, type: 3}
  - {fileID: 21300000, guid: d384c0f91b885f449b0899d6f996efb1, type: 3}
  - {fileID: 21300000, guid: d384c0f91b885f449b0899d6f996efb1, type: 3}
  - {fileID: 21300000, guid: d384c0f91b885f449b0899d6f996efb1, type: 3}
  - {fileID: 21300000, guid: d384c0f91b885f449b0899d6f996efb1, type: 3}
  - {fileID: 21300000, guid: d384c0f91b885f449b0899d6f996efb1, type: 3}
  - {fileID: 21300000, guid: d384c0f91b885f449b0899d6f996efb1, type: 3}
  - {fileID: 21300000, guid: d384c0f91b885f449b0899d6f996efb1, type: 3}
  - {fileID: 21300000, guid: d384c0f91b885f449b0899d6f996efb1, type: 3}
  - {fileID: 21300000, guid: d384c0f91b885f449b0899d6f996efb1, type: 3}
  - {fileID: 21300000, guid: d384c0f91b885f449b0899d6f996efb1, type: 3}
  - {fileID: 21300000, guid: d384c0f91b885f449b0899d6f996efb1, type: 3}
  UnitsGreyIcons:
  - {fileID: 21300000, guid: 8b25ff9237ff4874f940a8b37a3dcadc, type: 3}
  - {fileID: 21300000, guid: 8b25ff9237ff4874f940a8b37a3dcadc, type: 3}
  - {fileID: 21300000, guid: 8b25ff9237ff4874f940a8b37a3dcadc, type: 3}
  - {fileID: 21300000, guid: 8b25ff9237ff4874f940a8b37a3dcadc, type: 3}
  - {fileID: 21300000, guid: 8b25ff9237ff4874f940a8b37a3dcadc, type: 3}
  - {fileID: 21300000, guid: 8b25ff9237ff4874f940a8b37a3dcadc, type: 3}
  - {fileID: 21300000, guid: 8b25ff9237ff4874f940a8b37a3dcadc, type: 3}
  - {fileID: 21300000, guid: 8b25ff9237ff4874f940a8b37a3dcadc, type: 3}
  - {fileID: 21300000, guid: 8b25ff9237ff4874f940a8b37a3dcadc, type: 3}
  - {fileID: 21300000, guid: 8b25ff9237ff4874f940a8b37a3dcadc, type: 3}
  - {fileID: 21300000, guid: 8b25ff9237ff4874f940a8b37a3dcadc, type: 3}
  - {fileID: 21300000, guid: 8b25ff9237ff4874f940a8b37a3dcadc, type: 3}
  - {fileID: 21300000, guid: 8b25ff9237ff4874f940a8b37a3dcadc, type: 3}
  - {fileID: 21300000, guid: 8b25ff9237ff4874f940a8b37a3dcadc, type: 3}
  PropsIcons:
  - {fileID: 21300000, guid: 0538309b559047c4eaac8d8ba3b00403, type: 3}
  - {fileID: 21300000, guid: 0538309b559047c4eaac8d8ba3b00403, type: 3}
  - {fileID: 21300000, guid: 0538309b559047c4eaac8d8ba3b00403, type: 3}
  - {fileID: 21300000, guid: 0538309b559047c4eaac8d8ba3b00403, type: 3}
  - {fileID: 21300000, guid: 0538309b559047c4eaac8d8ba3b00403, type: 3}
  - {fileID: 21300000, guid: 0538309b559047c4eaac8d8ba3b00403, type: 3}
  - {fileID: 21300000, guid: 0538309b559047c4eaac8d8ba3b00403, type: 3}
  - {fileID: 21300000, guid: 0538309b559047c4eaac8d8ba3b00403, type: 3}
  - {fileID: 21300000, guid: 0538309b559047c4eaac8d8ba3b00403, type: 3}
  - {fileID: 21300000, guid: 0538309b559047c4eaac8d8ba3b00403, type: 3}
  - {fileID: 21300000, guid: 0538309b559047c4eaac8d8ba3b00403, type: 3}
  - {fileID: 21300000, guid: 0538309b559047c4eaac8d8ba3b00403, type: 3}
  - {fileID: 21300000, guid: 0538309b559047c4eaac8d8ba3b00403, type: 3}
  - {fileID: 21300000, guid: 0538309b559047c4eaac8d8ba3b00403, type: 3}
  PropsBigIcons:
  - {fileID: 21300000, guid: 0538309b559047c4eaac8d8ba3b00403, type: 3}
  - {fileID: 21300000, guid: 0538309b559047c4eaac8d8ba3b00403, type: 3}
  - {fileID: 21300000, guid: 0538309b559047c4eaac8d8ba3b00403, type: 3}
  - {fileID: 21300000, guid: 0538309b559047c4eaac8d8ba3b00403, type: 3}
  - {fileID: 21300000, guid: 0538309b559047c4eaac8d8ba3b00403, type: 3}
  - {fileID: 21300000, guid: 0538309b559047c4eaac8d8ba3b00403, type: 3}
  - {fileID: 21300000, guid: 0538309b559047c4eaac8d8ba3b00403, type: 3}
  - {fileID: 21300000, guid: 0538309b559047c4eaac8d8ba3b00403, type: 3}
  - {fileID: 21300000, guid: 0538309b559047c4eaac8d8ba3b00403, type: 3}
  - {fileID: 21300000, guid: 0538309b559047c4eaac8d8ba3b00403, type: 3}
  - {fileID: 21300000, guid: 0538309b559047c4eaac8d8ba3b00403, type: 3}
  - {fileID: 21300000, guid: 0538309b559047c4eaac8d8ba3b00403, type: 3}
  - {fileID: 21300000, guid: 0538309b559047c4eaac8d8ba3b00403, type: 3}
  - {fileID: 21300000, guid: 0538309b559047c4eaac8d8ba3b00403, type: 3}
  PropsGreyIcons:
  - {fileID: 21300000, guid: 8b25ff9237ff4874f940a8b37a3dcadc, type: 3}
  - {fileID: 21300000, guid: 8b25ff9237ff4874f940a8b37a3dcadc, type: 3}
  - {fileID: 21300000, guid: 8b25ff9237ff4874f940a8b37a3dcadc, type: 3}
  - {fileID: 21300000, guid: 8b25ff9237ff4874f940a8b37a3dcadc, type: 3}
  - {fileID: 21300000, guid: 8b25ff9237ff4874f940a8b37a3dcadc, type: 3}
  - {fileID: 21300000, guid: 8b25ff9237ff4874f940a8b37a3dcadc, type: 3}
  - {fileID: 21300000, guid: 8b25ff9237ff4874f940a8b37a3dcadc, type: 3}
  - {fileID: 21300000, guid: 8b25ff9237ff4874f940a8b37a3dcadc, type: 3}
  - {fileID: 21300000, guid: 8b25ff9237ff4874f940a8b37a3dcadc, type: 3}
  - {fileID: 21300000, guid: 8b25ff9237ff4874f940a8b37a3dcadc, type: 3}
  - {fileID: 21300000, guid: 8b25ff9237ff4874f940a8b37a3dcadc, type: 3}
  - {fileID: 21300000, guid: 8b25ff9237ff4874f940a8b37a3dcadc, type: 3}
  - {fileID: 21300000, guid: 8b25ff9237ff4874f940a8b37a3dcadc, type: 3}
  - {fileID: 21300000, guid: 8b25ff9237ff4874f940a8b37a3dcadc, type: 3}
  BuildingsStatsIcons:
  - {fileID: 21300000, guid: d4bd25d9d6f7ed54fb12092a66474289, type: 3}
  - {fileID: 21300000, guid: d4bd25d9d6f7ed54fb12092a66474289, type: 3}
  - {fileID: 21300000, guid: d4bd25d9d6f7ed54fb12092a66474289, type: 3}
  - {fileID: 21300000, guid: d4bd25d9d6f7ed54fb12092a66474289, type: 3}
  - {fileID: 21300000, guid: d4bd25d9d6f7ed54fb12092a66474289, type: 3}
  - {fileID: 21300000, guid: d4bd25d9d6f7ed54fb12092a66474289, type: 3}
  - {fileID: 21300000, guid: d4bd25d9d6f7ed54fb12092a66474289, type: 3}
  - {fileID: 21300000, guid: d4bd25d9d6f7ed54fb12092a66474289, type: 3}
  - {fileID: 21300000, guid: d4bd25d9d6f7ed54fb12092a66474289, type: 3}
  - {fileID: 21300000, guid: d4bd25d9d6f7ed54fb12092a66474289, type: 3}
  - {fileID: 21300000, guid: d4bd25d9d6f7ed54fb12092a66474289, type: 3}
  - {fileID: 21300000, guid: d4bd25d9d6f7ed54fb12092a66474289, type: 3}
  - {fileID: 21300000, guid: d4bd25d9d6f7ed54fb12092a66474289, type: 3}
  - {fileID: 21300000, guid: d4bd25d9d6f7ed54fb12092a66474289, type: 3}
  UnitsStatsIcons:
  - {fileID: 21300000, guid: f05a2fd96a9c6da4587a5827454f296f, type: 3}
  - {fileID: 21300000, guid: f05a2fd96a9c6da4587a5827454f296f, type: 3}
  - {fileID: 21300000, guid: f05a2fd96a9c6da4587a5827454f296f, type: 3}
  - {fileID: 21300000, guid: f05a2fd96a9c6da4587a5827454f296f, type: 3}
  - {fileID: 21300000, guid: f05a2fd96a9c6da4587a5827454f296f, type: 3}
  - {fileID: 21300000, guid: f05a2fd96a9c6da4587a5827454f296f, type: 3}
  - {fileID: 21300000, guid: f05a2fd96a9c6da4587a5827454f296f, type: 3}
  - {fileID: 21300000, guid: f05a2fd96a9c6da4587a5827454f296f, type: 3}
  - {fileID: 21300000, guid: f05a2fd96a9c6da4587a5827454f296f, type: 3}
  - {fileID: 21300000, guid: f05a2fd96a9c6da4587a5827454f296f, type: 3}
  - {fileID: 21300000, guid: f05a2fd96a9c6da4587a5827454f296f, type: 3}
  - {fileID: 21300000, guid: f05a2fd96a9c6da4587a5827454f296f, type: 3}
  - {fileID: 21300000, guid: f05a2fd96a9c6da4587a5827454f296f, type: 3}
  - {fileID: 21300000, guid: f05a2fd96a9c6da4587a5827454f296f, type: 3}
  PropsStatsIcons:
  - {fileID: 21300000, guid: 8e57b81bce8f9d740b60d270b33e455f, type: 3}
  - {fileID: 21300000, guid: 8e57b81bce8f9d740b60d270b33e455f, type: 3}
  - {fileID: 21300000, guid: 8e57b81bce8f9d740b60d270b33e455f, type: 3}
  - {fileID: 21300000, guid: 8e57b81bce8f9d740b60d270b33e455f, type: 3}
  - {fileID: 21300000, guid: 8e57b81bce8f9d740b60d270b33e455f, type: 3}
  - {fileID: 21300000, guid: 8e57b81bce8f9d740b60d270b33e455f, type: 3}
  - {fileID: 21300000, guid: 8e57b81bce8f9d740b60d270b33e455f, type: 3}
  - {fileID: 21300000, guid: 8e57b81bce8f9d740b60d270b33e455f, type: 3}
  - {fileID: 21300000, guid: 8e57b81bce8f9d740b60d270b33e455f, type: 3}
  - {fileID: 21300000, guid: 8e57b81bce8f9d740b60d270b33e455f, type: 3}
  - {fileID: 21300000, guid: 8e57b81bce8f9d740b60d270b33e455f, type: 3}
  - {fileID: 21300000, guid: 8e57b81bce8f9d740b60d270b33e455f, type: 3}
  - {fileID: 21300000, guid: 8e57b81bce8f9d740b60d270b33e455f, type: 3}
  - {fileID: 21300000, guid: 8e57b81bce8f9d740b60d270b33e455f, type: 3}
