%YAML 1.1
%TAG !u! tag:unity3d.com,2011:
--- !u!114 &11400000
MonoBehaviour:
  m_ObjectHideFlags: 0
  m_CorrespondingSourceObject: {fileID: 0}
  m_PrefabInstance: {fileID: 0}
  m_PrefabAsset: {fileID: 0}
  m_GameObject: {fileID: 0}
  m_Enabled: 1
  m_EditorHideFlags: 0
  m_Script: {fileID: 11500000, guid: 9c47f8e7e9d945279b55bda351c79903, type: 3}
  m_Name: BarService
  m_EditorClassIdentifier: 
  m_useGuid: 0
  m_saveId: BarService
  m_guid: 982ee30e-2fa3-4357-8be1-c91a01e15863
  m_file:
    BuildingsLevel: 0
    Resource: []
    Units: []
    Props: []
  needCameraTarget: 1
  serviceType: 2
  services: {fileID: 11400000, guid: 89bfeaa1bd623274ea5a41e5a4677c90, type: 2}
  SpendServiceMoney: 0
  OfflineProggressSpendServ: 0
  subscribed: []
