%YAML 1.1
%TAG !u! tag:unity3d.com,2011:
--- !u!114 &11400000
MonoBehaviour:
  m_ObjectHideFlags: 0
  m_CorrespondingSourceObject: {fileID: 0}
  m_PrefabInstance: {fileID: 0}
  m_PrefabAsset: {fileID: 0}
  m_GameObject: {fileID: 0}
  m_Enabled: 1
  m_EditorHideFlags: 0
  m_Script: {fileID: 11500000, guid: 9c47f8e7e9d945279b55bda351c79903, type: 3}
  m_Name: ClientsService
  m_EditorClassIdentifier: 
  m_useGuid: 0
  m_saveId: ClientsService
  m_guid: 03ae8007-3832-472c-9f32-d9a80cb37299
  m_file:
    BuildingsLevel: 0
    Resource:
    - ID: Lumberjack_work_zone_72
      Level: 1
      CurrentAmount: 100
    - ID: Lumberjack_work_zone_71
      Level: 1
      CurrentAmount: 100
    - ID: Lumberjack_work_zone_70
      Level: 1
      CurrentAmount: 100
    - ID: Lumberjack_work_zone_69
      Level: 1
      CurrentAmount: 100
    - ID: Lumberjack_work_zone_68
      Level: 1
      CurrentAmount: 100
    - ID: Lumberjack_work_zone_67
      Level: 1
      CurrentAmount: 100
    - ID: Lumberjack_work_zone_66
      Level: 1
      CurrentAmount: 100
    - ID: Lumberjack_work_zone_65
      Level: 1
      CurrentAmount: 100
    - ID: Lumberjack_work_zone_64
      Level: 1
      CurrentAmount: 100
    - ID: Lumberjack_work_zone_63
      Level: 1
      CurrentAmount: 100
    - ID: Lumberjack_work_zone_62
      Level: 1
      CurrentAmount: 100
    - ID: Lumberjack_work_zone_61
      Level: 1
      CurrentAmount: 100
    - ID: Lumberjack_work_zone_60
      Level: 1
      CurrentAmount: 100
    - ID: Lumberjack_work_zone_59
      Level: 1
      CurrentAmount: 100
    - ID: Lumberjack_work_zone_58
      Level: 1
      CurrentAmount: 100
    - ID: Lumberjack_work_zone_57
      Level: 1
      CurrentAmount: 100
    - ID: Lumberjack_work_zone_56
      Level: 1
      CurrentAmount: 100
    - ID: Lumberjack_work_zone_55
      Level: 1
      CurrentAmount: 100
    - ID: Lumberjack_work_zone_54
      Level: 1
      CurrentAmount: 100
    - ID: Lumberjack_work_zone_53
      Level: 1
      CurrentAmount: 100
    - ID: Lumberjack_work_zone_52
      Level: 1
      CurrentAmount: 100
    - ID: Lumberjack_work_zone_51
      Level: 1
      CurrentAmount: 100
    - ID: Lumberjack_work_zone_50
      Level: 1
      CurrentAmount: 100
    - ID: Lumberjack_work_zone_49
      Level: 1
      CurrentAmount: 100
    - ID: Lumberjack_work_zone_48
      Level: 1
      CurrentAmount: 100
    - ID: Lumberjack_work_zone_47
      Level: 1
      CurrentAmount: 100
    - ID: Lumberjack_work_zone_46
      Level: 1
      CurrentAmount: 100
    - ID: Lumberjack_work_zone_45
      Level: 1
      CurrentAmount: 100
    - ID: Lumberjack_work_zone_44
      Level: 1
      CurrentAmount: 100
    - ID: Lumberjack_work_zone_43
      Level: 1
      CurrentAmount: 100
    - ID: Lumberjack_work_zone_42
      Level: 1
      CurrentAmount: 100
    - ID: Lumberjack_work_zone_41
      Level: 1
      CurrentAmount: 100
    - ID: Lumberjack_work_zone_40
      Level: 1
      CurrentAmount: 100
    - ID: Lumberjack_work_zone_39
      Level: 1
      CurrentAmount: 100
    - ID: Lumberjack_work_zone_38
      Level: 1
      CurrentAmount: 100
    - ID: Lumberjack_work_zone_37
      Level: 1
      CurrentAmount: 100
    - ID: Lumberjack_work_zone_36
      Level: 1
      CurrentAmount: 100
    - ID: Lumberjack_work_zone_35
      Level: 1
      CurrentAmount: 100
    - ID: Lumberjack_work_zone_34
      Level: 1
      CurrentAmount: 100
    - ID: Lumberjack_work_zone_33
      Level: 1
      CurrentAmount: 100
    - ID: Lumberjack_work_zone_32
      Level: 1
      CurrentAmount: 100
    - ID: Lumberjack_work_zone_31
      Level: 1
      CurrentAmount: 100
    - ID: Lumberjack_work_zone_30
      Level: 1
      CurrentAmount: 100
    - ID: Lumberjack_work_zone_29
      Level: 1
      CurrentAmount: 100
    - ID: Lumberjack_work_zone_28
      Level: 1
      CurrentAmount: 100
    - ID: Lumberjack_work_zone_27
      Level: 1
      CurrentAmount: 100
    - ID: Lumberjack_work_zone_26
      Level: 1
      CurrentAmount: 100
    - ID: Lumberjack_work_zone_25
      Level: 1
      CurrentAmount: 100
    - ID: Lumberjack_work_zone_24
      Level: 1
      CurrentAmount: 100
    - ID: Lumberjack_work_zone_23
      Level: 1
      CurrentAmount: 100
    - ID: Lumberjack_work_zone_22
      Level: 1
      CurrentAmount: 100
    - ID: Lumberjack_work_zone_21
      Level: 1
      CurrentAmount: 100
    - ID: Lumberjack_work_zone_20
      Level: 1
      CurrentAmount: 100
    - ID: Lumberjack_work_zone_19
      Level: 1
      CurrentAmount: 100
    - ID: Lumberjack_work_zone_18
      Level: 1
      CurrentAmount: 100
    - ID: Lumberjack_work_zone_17
      Level: 1
      CurrentAmount: 100
    - ID: Lumberjack_work_zone_16
      Level: 1
      CurrentAmount: 100
    - ID: Lumberjack_work_zone_15
      Level: 1
      CurrentAmount: 100
    - ID: Lumberjack_work_zone_14
      Level: 1
      CurrentAmount: 100
    - ID: Lumberjack_work_zone_13
      Level: 1
      CurrentAmount: 100
    - ID: Lumberjack_work_zone_12
      Level: 1
      CurrentAmount: 100
    - ID: Lumberjack_work_zone_11
      Level: 1
      CurrentAmount: 100
    - ID: Lumberjack_work_zone_10
      Level: 1
      CurrentAmount: 100
    - ID: Lumberjack_work_zone_9
      Level: 1
      CurrentAmount: 100
    - ID: Lumberjack_work_zone_8
      Level: 1
      CurrentAmount: 100
    - ID: Lumberjack_work_zone_7
      Level: 1
      CurrentAmount: 100
    - ID: Lumberjack_work_zone_6
      Level: 1
      CurrentAmount: 100
    - ID: Lumberjack_work_zone_5
      Level: 1
      CurrentAmount: 100
    - ID: Lumberjack_work_zone_4
      Level: 1
      CurrentAmount: 100
    - ID: Lumberjack_work_zone_3
      Level: 1
      CurrentAmount: 100
    - ID: Lumberjack_work_zone_2
      Level: 1
      CurrentAmount: 100
    - ID: Lumberjack_work_zone_1
      Level: 1
      CurrentAmount: 100
    Units: []
    Props: []
  needCameraTarget: 1
  serviceType: 0
  services: {fileID: 0}
  SpendServiceMoney: 0
  OfflineProggressSpendServ: 0
  subscribed: []
