%YAML 1.1
%TAG !u! tag:unity3d.com,2011:
--- !u!114 &11400000
MonoBehaviour:
  m_ObjectHideFlags: 0
  m_CorrespondingSourceObject: {fileID: 0}
  m_PrefabInstance: {fileID: 0}
  m_PrefabAsset: {fileID: 0}
  m_GameObject: {fileID: 0}
  m_Enabled: 1
  m_EditorHideFlags: 0
  m_Script: {fileID: 11500000, guid: 484b9b6ad40277147b6201ca1e5d70f5, type: 3}
  m_Name: Sleep
  m_EditorClassIdentifier: 
  Icon: {fileID: 21300000, guid: 7de68948103fd8948821b2af6adf5fce, type: 3}
  Prefix: +
  requirementType: Sleep
