%YAML 1.1
%TAG !u! tag:unity3d.com,2011:
--- !u!114 &11400000
MonoBehaviour:
  m_ObjectHideFlags: 0
  m_CorrespondingSourceObject: {fileID: 0}
  m_PrefabInstance: {fileID: 0}
  m_PrefabAsset: {fileID: 0}
  m_GameObject: {fileID: 0}
  m_Enabled: 1
  m_EditorHideFlags: 0
  m_Script: {fileID: 11500000, guid: f05dc813bc9843d3a64434a2c9cfe79e, type: 3}
  m_Name: GreenGem
  m_EditorClassIdentifier: 
  m_developmentDescription: 
  m_value: 5000
  m_type: 0
  m_minValue: 0
  m_maxValue: 3.4028235e+38
  Id: GreenGem
  Icon: {fileID: 21300000, guid: 7b8cd1a708285734282b21a86389d086, type: 3}
