%YAML 1.1
%TAG !u! tag:unity3d.com,2011:
--- !u!114 &11400000
MonoBehaviour:
  m_ObjectHideFlags: 0
  m_CorrespondingSourceObject: {fileID: 0}
  m_PrefabInstance: {fileID: 0}
  m_PrefabAsset: {fileID: 0}
  m_GameObject: {fileID: 0}
  m_Enabled: 1
  m_EditorHideFlags: 0
  m_Script: {fileID: 11500000, guid: 6fe9578543864b538cc1b6ee2c11d576, type: 3}
  m_Name: ServicePackage
  m_EditorClassIdentifier: 
  m_useGuid: 0
  m_saveId: service_package
  m_guid: eecd9097-1966-4bfc-8543-b6f8621cada9
  m_saves:
  - {fileID: 11400000, guid: bc8992c43d156444f938e8859ad6ab67, type: 2}
  - {fileID: 11400000, guid: 63880f03c9f805a4abb53787acfd3a0d, type: 2}
  - {fileID: 11400000, guid: b99f9cf412925614697f77a47ff95a6e, type: 2}
  - {fileID: 11400000, guid: 85cf39e39f7a1d245a700f2919700cd4, type: 2}
  - {fileID: 11400000, guid: 9e81eaf771977d74abbd43d679692b80, type: 2}
  - {fileID: 11400000, guid: c6f1c3f7d7aa3fc4fb1bf2d336e86278, type: 2}
  - {fileID: 11400000, guid: 2bb43c32f6d3cf14b805ae55c2016f74, type: 2}
  - {fileID: 11400000, guid: ef6eb6ace1a938d40a55085b6f0a1f94, type: 2}
  - {fileID: 11400000, guid: 49eb1c62f767c96429d8a3b495539766, type: 2}
  - {fileID: 11400000, guid: ae31a0b64816ef842b8c90f2cf4bcbcf, type: 2}
