%YAML 1.1
%TAG !u! tag:unity3d.com,2011:
--- !u!1 &4740444554558508490
GameObject:
  m_ObjectHideFlags: 0
  m_CorrespondingSourceObject: {fileID: 0}
  m_PrefabInstance: {fileID: 0}
  m_PrefabAsset: {fileID: 0}
  serializedVersion: 6
  m_Component:
  - component: {fileID: 5633720369109612723}
  - component: {fileID: 4495647700524953240}
  - component: {fileID: 8716374095662881538}
  - component: {fileID: 2799305796410730535}
  m_Layer: 5
  m_Name: TutorialSawmillButton28
  m_TagString: Untagged
  m_Icon: {fileID: 0}
  m_NavMeshLayer: 0
  m_StaticEditorFlags: 0
  m_IsActive: 1
--- !u!224 &5633720369109612723
RectTransform:
  m_ObjectHideFlags: 0
  m_CorrespondingSourceObject: {fileID: 0}
  m_PrefabInstance: {fileID: 0}
  m_PrefabAsset: {fileID: 0}
  m_GameObject: {fileID: 4740444554558508490}
  m_LocalRotation: {x: -0, y: -0, z: -0.12426272, w: 0.9922494}
  m_LocalPosition: {x: 0, y: 0, z: 0}
  m_LocalScale: {x: 1, y: 1, z: 1}
  m_ConstrainProportionsScale: 0
  m_Children: []
  m_Father: {fileID: 505359356781824555}
  m_RootOrder: 2
  m_LocalEulerAnglesHint: {x: 0, y: 0, z: -14.276}
  m_AnchorMin: {x: 0.5, y: 1}
  m_AnchorMax: {x: 0.5, y: 1}
  m_AnchoredPosition: {x: 245, y: -250.7749}
  m_SizeDelta: {x: 1500, y: 1500}
  m_Pivot: {x: 0.5, y: 0.5}
--- !u!222 &4495647700524953240
CanvasRenderer:
  m_ObjectHideFlags: 0
  m_CorrespondingSourceObject: {fileID: 0}
  m_PrefabInstance: {fileID: 0}
  m_PrefabAsset: {fileID: 0}
  m_GameObject: {fileID: 4740444554558508490}
  m_CullTransparentMesh: 1
--- !u!114 &8716374095662881538
MonoBehaviour:
  m_ObjectHideFlags: 0
  m_CorrespondingSourceObject: {fileID: 0}
  m_PrefabInstance: {fileID: 0}
  m_PrefabAsset: {fileID: 0}
  m_GameObject: {fileID: 4740444554558508490}
  m_Enabled: 1
  m_EditorHideFlags: 0
  m_Script: {fileID: 11500000, guid: fe87c0e1cc204ed48ad3b37840f39efc, type: 3}
  m_Name: 
  m_EditorClassIdentifier: 
  m_Material: {fileID: 0}
  m_Color: {r: 1, g: 1, b: 1, a: 0}
  m_RaycastTarget: 1
  m_RaycastPadding: {x: 0, y: 0, z: 0, w: 0}
  m_Maskable: 1
  m_OnCullStateChanged:
    m_PersistentCalls:
      m_Calls: []
  m_Sprite: {fileID: 10905, guid: 0000000000000000f000000000000000, type: 0}
  m_Type: 1
  m_PreserveAspect: 0
  m_FillCenter: 1
  m_FillMethod: 4
  m_FillAmount: 1
  m_FillClockwise: 1
  m_FillOrigin: 0
  m_UseSpriteMesh: 0
  m_PixelsPerUnitMultiplier: 1
--- !u!114 &2799305796410730535
MonoBehaviour:
  m_ObjectHideFlags: 0
  m_CorrespondingSourceObject: {fileID: 0}
  m_PrefabInstance: {fileID: 0}
  m_PrefabAsset: {fileID: 0}
  m_GameObject: {fileID: 4740444554558508490}
  m_Enabled: 1
  m_EditorHideFlags: 0
  m_Script: {fileID: 11500000, guid: 4e29b1a8efbd4b44bb3f3716e73f07ff, type: 3}
  m_Name: 
  m_EditorClassIdentifier: 
  m_Navigation:
    m_Mode: 3
    m_WrapAround: 0
    m_SelectOnUp: {fileID: 0}
    m_SelectOnDown: {fileID: 0}
    m_SelectOnLeft: {fileID: 0}
    m_SelectOnRight: {fileID: 0}
  m_Transition: 1
  m_Colors:
    m_NormalColor: {r: 1, g: 1, b: 1, a: 1}
    m_HighlightedColor: {r: 0.9607843, g: 0.9607843, b: 0.9607843, a: 1}
    m_PressedColor: {r: 0.78431374, g: 0.78431374, b: 0.78431374, a: 1}
    m_SelectedColor: {r: 0.9607843, g: 0.9607843, b: 0.9607843, a: 1}
    m_DisabledColor: {r: 0.78431374, g: 0.78431374, b: 0.78431374, a: 0.5019608}
    m_ColorMultiplier: 1
    m_FadeDuration: 0.1
  m_SpriteState:
    m_HighlightedSprite: {fileID: 0}
    m_PressedSprite: {fileID: 0}
    m_SelectedSprite: {fileID: 0}
    m_DisabledSprite: {fileID: 0}
  m_AnimationTriggers:
    m_NormalTrigger: Normal
    m_HighlightedTrigger: Highlighted
    m_PressedTrigger: Pressed
    m_SelectedTrigger: Selected
    m_DisabledTrigger: Disabled
  m_Interactable: 1
  m_TargetGraphic: {fileID: 8716374095662881538}
  m_OnClick:
    m_PersistentCalls:
      m_Calls:
      - m_Target: {fileID: 0}
        m_TargetAssemblyTypeName: UI.Village.ServiceMenu, Assembly-CSharp
        m_MethodName: SetLookPosition
        m_Mode: 2
        m_Arguments:
          m_ObjectArgument: {fileID: 0}
          m_ObjectArgumentAssemblyTypeName: UnityEngine.Transform, UnityEngine
          m_IntArgument: 0
          m_FloatArgument: 0
          m_StringArgument: 
          m_BoolArgument: 1
        m_CallState: 2
      - m_Target: {fileID: 0}
        m_TargetAssemblyTypeName: UI.Village.ServiceMenu, Assembly-CSharp
        m_MethodName: ShowMenu
        m_Mode: 2
        m_Arguments:
          m_ObjectArgument: {fileID: 11400000, guid: 8a2817bd7ab1aad4f825a7733ee9c9a4, type: 2}
          m_ObjectArgumentAssemblyTypeName: NPCs.ServiceManager, Assembly-CSharp
          m_IntArgument: 0
          m_FloatArgument: 0
          m_StringArgument: 
          m_BoolArgument: 1
        m_CallState: 2
      - m_Target: {fileID: 0}
        m_TargetAssemblyTypeName: UnityEngine.GameObject, UnityEngine
        m_MethodName: SetActive
        m_Mode: 6
        m_Arguments:
          m_ObjectArgument: {fileID: 0}
          m_ObjectArgumentAssemblyTypeName: UnityEngine.Object, UnityEngine
          m_IntArgument: 0
          m_FloatArgument: 0
          m_StringArgument: 
          m_BoolArgument: 1
        m_CallState: 2
--- !u!1001 &1359842817668623511
PrefabInstance:
  m_ObjectHideFlags: 0
  serializedVersion: 2
  m_Modification:
    m_TransformParent: {fileID: 0}
    m_Modifications:
    - target: {fileID: 1575209281142630076, guid: 2180460af25d16d4e82c299431f9d69e, type: 3}
      propertyPath: m_Pivot.x
      value: 0.5
      objectReference: {fileID: 0}
    - target: {fileID: 1575209281142630076, guid: 2180460af25d16d4e82c299431f9d69e, type: 3}
      propertyPath: m_Pivot.y
      value: 0.5
      objectReference: {fileID: 0}
    - target: {fileID: 1575209281142630076, guid: 2180460af25d16d4e82c299431f9d69e, type: 3}
      propertyPath: m_RootOrder
      value: 0
      objectReference: {fileID: 0}
    - target: {fileID: 1575209281142630076, guid: 2180460af25d16d4e82c299431f9d69e, type: 3}
      propertyPath: m_AnchorMax.x
      value: 0.5
      objectReference: {fileID: 0}
    - target: {fileID: 1575209281142630076, guid: 2180460af25d16d4e82c299431f9d69e, type: 3}
      propertyPath: m_AnchorMax.y
      value: 0.5
      objectReference: {fileID: 0}
    - target: {fileID: 1575209281142630076, guid: 2180460af25d16d4e82c299431f9d69e, type: 3}
      propertyPath: m_AnchorMin.x
      value: 0.5
      objectReference: {fileID: 0}
    - target: {fileID: 1575209281142630076, guid: 2180460af25d16d4e82c299431f9d69e, type: 3}
      propertyPath: m_AnchorMin.y
      value: 0.5
      objectReference: {fileID: 0}
    - target: {fileID: 1575209281142630076, guid: 2180460af25d16d4e82c299431f9d69e, type: 3}
      propertyPath: m_SizeDelta.x
      value: 1080
      objectReference: {fileID: 0}
    - target: {fileID: 1575209281142630076, guid: 2180460af25d16d4e82c299431f9d69e, type: 3}
      propertyPath: m_SizeDelta.y
      value: 1920
      objectReference: {fileID: 0}
    - target: {fileID: 1575209281142630076, guid: 2180460af25d16d4e82c299431f9d69e, type: 3}
      propertyPath: m_LocalPosition.x
      value: 0
      objectReference: {fileID: 0}
    - target: {fileID: 1575209281142630076, guid: 2180460af25d16d4e82c299431f9d69e, type: 3}
      propertyPath: m_LocalPosition.y
      value: 0
      objectReference: {fileID: 0}
    - target: {fileID: 1575209281142630076, guid: 2180460af25d16d4e82c299431f9d69e, type: 3}
      propertyPath: m_LocalPosition.z
      value: 0
      objectReference: {fileID: 0}
    - target: {fileID: 1575209281142630076, guid: 2180460af25d16d4e82c299431f9d69e, type: 3}
      propertyPath: m_LocalRotation.w
      value: 1
      objectReference: {fileID: 0}
    - target: {fileID: 1575209281142630076, guid: 2180460af25d16d4e82c299431f9d69e, type: 3}
      propertyPath: m_LocalRotation.x
      value: -0
      objectReference: {fileID: 0}
    - target: {fileID: 1575209281142630076, guid: 2180460af25d16d4e82c299431f9d69e, type: 3}
      propertyPath: m_LocalRotation.y
      value: -0
      objectReference: {fileID: 0}
    - target: {fileID: 1575209281142630076, guid: 2180460af25d16d4e82c299431f9d69e, type: 3}
      propertyPath: m_LocalRotation.z
      value: -0
      objectReference: {fileID: 0}
    - target: {fileID: 1575209281142630076, guid: 2180460af25d16d4e82c299431f9d69e, type: 3}
      propertyPath: m_AnchoredPosition.x
      value: 0
      objectReference: {fileID: 0}
    - target: {fileID: 1575209281142630076, guid: 2180460af25d16d4e82c299431f9d69e, type: 3}
      propertyPath: m_AnchoredPosition.y
      value: 0
      objectReference: {fileID: 0}
    - target: {fileID: 1575209281142630076, guid: 2180460af25d16d4e82c299431f9d69e, type: 3}
      propertyPath: m_LocalEulerAnglesHint.x
      value: 0
      objectReference: {fileID: 0}
    - target: {fileID: 1575209281142630076, guid: 2180460af25d16d4e82c299431f9d69e, type: 3}
      propertyPath: m_LocalEulerAnglesHint.y
      value: 0
      objectReference: {fileID: 0}
    - target: {fileID: 1575209281142630076, guid: 2180460af25d16d4e82c299431f9d69e, type: 3}
      propertyPath: m_LocalEulerAnglesHint.z
      value: 0
      objectReference: {fileID: 0}
    - target: {fileID: 1575209281142630079, guid: 2180460af25d16d4e82c299431f9d69e, type: 3}
      propertyPath: m_Name
      value: TutorialStep28
      objectReference: {fileID: 0}
    - target: {fileID: 1575209281142630079, guid: 2180460af25d16d4e82c299431f9d69e, type: 3}
      propertyPath: m_IsActive
      value: 1
      objectReference: {fileID: 0}
    - target: {fileID: 1575209281453113756, guid: 2180460af25d16d4e82c299431f9d69e, type: 3}
      propertyPath: m_AnchoredPosition.y
      value: -300
      objectReference: {fileID: 0}
    m_RemovedComponents: []
  m_SourcePrefab: {fileID: 100100000, guid: 2180460af25d16d4e82c299431f9d69e, type: 3}
--- !u!224 &505359356781824555 stripped
RectTransform:
  m_CorrespondingSourceObject: {fileID: 1575209281142630076, guid: 2180460af25d16d4e82c299431f9d69e, type: 3}
  m_PrefabInstance: {fileID: 1359842817668623511}
  m_PrefabAsset: {fileID: 0}
--- !u!1001 &6623382420895947019
PrefabInstance:
  m_ObjectHideFlags: 0
  serializedVersion: 2
  m_Modification:
    m_TransformParent: {fileID: 505359356781824555}
    m_Modifications:
    - target: {fileID: 7453028172855797169, guid: 1235f2e0a3220b241bb971f4784d31a4, type: 3}
      propertyPath: m_RootOrder
      value: 1
      objectReference: {fileID: 0}
    - target: {fileID: 7453028172855797169, guid: 1235f2e0a3220b241bb971f4784d31a4, type: 3}
      propertyPath: m_AnchorMax.y
      value: 1
      objectReference: {fileID: 0}
    - target: {fileID: 7453028172855797169, guid: 1235f2e0a3220b241bb971f4784d31a4, type: 3}
      propertyPath: m_AnchorMin.y
      value: 1
      objectReference: {fileID: 0}
    - target: {fileID: 7453028172855797169, guid: 1235f2e0a3220b241bb971f4784d31a4, type: 3}
      propertyPath: m_SizeDelta.x
      value: 200
      objectReference: {fileID: 0}
    - target: {fileID: 7453028172855797169, guid: 1235f2e0a3220b241bb971f4784d31a4, type: 3}
      propertyPath: m_SizeDelta.y
      value: 200
      objectReference: {fileID: 0}
    - target: {fileID: 7453028172855797169, guid: 1235f2e0a3220b241bb971f4784d31a4, type: 3}
      propertyPath: m_LocalRotation.w
      value: 0.7313288
      objectReference: {fileID: 0}
    - target: {fileID: 7453028172855797169, guid: 1235f2e0a3220b241bb971f4784d31a4, type: 3}
      propertyPath: m_LocalRotation.x
      value: -0
      objectReference: {fileID: 0}
    - target: {fileID: 7453028172855797169, guid: 1235f2e0a3220b241bb971f4784d31a4, type: 3}
      propertyPath: m_LocalRotation.y
      value: -0
      objectReference: {fileID: 0}
    - target: {fileID: 7453028172855797169, guid: 1235f2e0a3220b241bb971f4784d31a4, type: 3}
      propertyPath: m_LocalRotation.z
      value: 0.68202513
      objectReference: {fileID: 0}
    - target: {fileID: 7453028172855797169, guid: 1235f2e0a3220b241bb971f4784d31a4, type: 3}
      propertyPath: m_AnchoredPosition.x
      value: 149.99998
      objectReference: {fileID: 0}
    - target: {fileID: 7453028172855797169, guid: 1235f2e0a3220b241bb971f4784d31a4, type: 3}
      propertyPath: m_AnchoredPosition.y
      value: -763
      objectReference: {fileID: 0}
    - target: {fileID: 7453028172855797169, guid: 1235f2e0a3220b241bb971f4784d31a4, type: 3}
      propertyPath: m_LocalEulerAnglesHint.z
      value: 86.004
      objectReference: {fileID: 0}
    - target: {fileID: 7453028172855797182, guid: 1235f2e0a3220b241bb971f4784d31a4, type: 3}
      propertyPath: m_Name
      value: TutorialFingerStep22
      objectReference: {fileID: 0}
    m_RemovedComponents: []
  m_SourcePrefab: {fileID: 100100000, guid: 1235f2e0a3220b241bb971f4784d31a4, type: 3}
