%YAML 1.1
%TAG !u! tag:unity3d.com,2011:
--- !u!1001 &7584941468388013892
PrefabInstance:
  m_ObjectHideFlags: 0
  serializedVersion: 2
  m_Modification:
    m_TransformParent: {fileID: 0}
    m_Modifications:
    - target: {fileID: 1575209280738682322, guid: 2180460af25d16d4e82c299431f9d69e, type: 3}
      propertyPath: m_text
      value: Good, now you need to build a <color="green">sawmill workplace</color>,
        to <color="orange">process the lumber</color>.
      objectReference: {fileID: 0}
    - target: {fileID: 1575209281142630076, guid: 2180460af25d16d4e82c299431f9d69e, type: 3}
      propertyPath: m_Pivot.x
      value: 0.5
      objectReference: {fileID: 0}
    - target: {fileID: 1575209281142630076, guid: 2180460af25d16d4e82c299431f9d69e, type: 3}
      propertyPath: m_Pivot.y
      value: 0.5
      objectReference: {fileID: 0}
    - target: {fileID: 1575209281142630076, guid: 2180460af25d16d4e82c299431f9d69e, type: 3}
      propertyPath: m_RootOrder
      value: 0
      objectReference: {fileID: 0}
    - target: {fileID: 1575209281142630076, guid: 2180460af25d16d4e82c299431f9d69e, type: 3}
      propertyPath: m_AnchorMax.x
      value: 0.5
      objectReference: {fileID: 0}
    - target: {fileID: 1575209281142630076, guid: 2180460af25d16d4e82c299431f9d69e, type: 3}
      propertyPath: m_AnchorMax.y
      value: 0.5
      objectReference: {fileID: 0}
    - target: {fileID: 1575209281142630076, guid: 2180460af25d16d4e82c299431f9d69e, type: 3}
      propertyPath: m_AnchorMin.x
      value: 0.5
      objectReference: {fileID: 0}
    - target: {fileID: 1575209281142630076, guid: 2180460af25d16d4e82c299431f9d69e, type: 3}
      propertyPath: m_AnchorMin.y
      value: 0.5
      objectReference: {fileID: 0}
    - target: {fileID: 1575209281142630076, guid: 2180460af25d16d4e82c299431f9d69e, type: 3}
      propertyPath: m_SizeDelta.x
      value: 1080
      objectReference: {fileID: 0}
    - target: {fileID: 1575209281142630076, guid: 2180460af25d16d4e82c299431f9d69e, type: 3}
      propertyPath: m_SizeDelta.y
      value: 1920
      objectReference: {fileID: 0}
    - target: {fileID: 1575209281142630076, guid: 2180460af25d16d4e82c299431f9d69e, type: 3}
      propertyPath: m_LocalPosition.x
      value: 0
      objectReference: {fileID: 0}
    - target: {fileID: 1575209281142630076, guid: 2180460af25d16d4e82c299431f9d69e, type: 3}
      propertyPath: m_LocalPosition.y
      value: 0
      objectReference: {fileID: 0}
    - target: {fileID: 1575209281142630076, guid: 2180460af25d16d4e82c299431f9d69e, type: 3}
      propertyPath: m_LocalPosition.z
      value: 0
      objectReference: {fileID: 0}
    - target: {fileID: 1575209281142630076, guid: 2180460af25d16d4e82c299431f9d69e, type: 3}
      propertyPath: m_LocalRotation.w
      value: 1
      objectReference: {fileID: 0}
    - target: {fileID: 1575209281142630076, guid: 2180460af25d16d4e82c299431f9d69e, type: 3}
      propertyPath: m_LocalRotation.x
      value: -0
      objectReference: {fileID: 0}
    - target: {fileID: 1575209281142630076, guid: 2180460af25d16d4e82c299431f9d69e, type: 3}
      propertyPath: m_LocalRotation.y
      value: -0
      objectReference: {fileID: 0}
    - target: {fileID: 1575209281142630076, guid: 2180460af25d16d4e82c299431f9d69e, type: 3}
      propertyPath: m_LocalRotation.z
      value: -0
      objectReference: {fileID: 0}
    - target: {fileID: 1575209281142630076, guid: 2180460af25d16d4e82c299431f9d69e, type: 3}
      propertyPath: m_AnchoredPosition.x
      value: 0
      objectReference: {fileID: 0}
    - target: {fileID: 1575209281142630076, guid: 2180460af25d16d4e82c299431f9d69e, type: 3}
      propertyPath: m_AnchoredPosition.y
      value: 0
      objectReference: {fileID: 0}
    - target: {fileID: 1575209281142630076, guid: 2180460af25d16d4e82c299431f9d69e, type: 3}
      propertyPath: m_LocalEulerAnglesHint.x
      value: 0
      objectReference: {fileID: 0}
    - target: {fileID: 1575209281142630076, guid: 2180460af25d16d4e82c299431f9d69e, type: 3}
      propertyPath: m_LocalEulerAnglesHint.y
      value: 0
      objectReference: {fileID: 0}
    - target: {fileID: 1575209281142630076, guid: 2180460af25d16d4e82c299431f9d69e, type: 3}
      propertyPath: m_LocalEulerAnglesHint.z
      value: 0
      objectReference: {fileID: 0}
    - target: {fileID: 1575209281142630079, guid: 2180460af25d16d4e82c299431f9d69e, type: 3}
      propertyPath: m_Name
      value: TutorialStep32
      objectReference: {fileID: 0}
    - target: {fileID: 1575209281142630079, guid: 2180460af25d16d4e82c299431f9d69e, type: 3}
      propertyPath: m_IsActive
      value: 1
      objectReference: {fileID: 0}
    - target: {fileID: 1575209281453113756, guid: 2180460af25d16d4e82c299431f9d69e, type: 3}
      propertyPath: m_AnchoredPosition.y
      value: 525
      objectReference: {fileID: 0}
    m_RemovedComponents: []
  m_SourcePrefab: {fileID: 100100000, guid: 2180460af25d16d4e82c299431f9d69e, type: 3}
